%YAML 1.1
%TAG !u! tag:unity3d.com,2011:
--- !u!21 &2100000
Material:
  serializedVersion: 6
  m_ObjectHideFlags: 0
  m_CorrespondingSourceObject: {fileID: 0}
  m_PrefabInstance: {fileID: 0}
  m_PrefabAsset: {fileID: 0}
  m_Name: Sky 01
  m_Shader: {fileID: 4800000, guid: 6fc9318f5193c094c98c0d450cd61e3b, type: 3}
  m_ShaderKeywords: _BUILTINFOG_ON _CLOUDS_ON _ENABLECLOUDSROTATION_ON _ENABLECLOUDS_ON
    _ENABLEPATTERNOVERLAY_ON _ENABLEPATTERN_ON _ENABLESKYPATTERNOVERLAY_ON _ENABLESTARSSUNMASK_ON
    _ENABLESTARSTWINKLING_ON _ENABLESTARS_ON _ENABLESUNMASK_ON _ENABLESUNMOONMASK_ON
    _ENABLESUNMOON_ON _ENABLESUN_ON _ENABLETWINKLING_ON _PATTERNOVERLAY_ON _STARS_ON
    _SUNORMOON_ON _USECUBEMAP_ON _USEENVIRONMENTGRADIENT_ON _USESKYPATTERNOVERLAY_ON
    _USETEXTURE_ON
  m_LightmapFlags: 0
  m_EnableInstancingVariants: 0
  m_DoubleSidedGI: 0
  m_CustomRenderQueue: -1
  stringTagMap: {}
  disabledShaderPasses: []
  m_SavedProperties:
    serializedVersion: 3
    m_TexEnvs:
    - _BackgroundCubemap:
        m_Texture: {fileID: 0}
        m_Scale: {x: 1, y: 1}
        m_Offset: {x: 0, y: 0}
    - _BumpMap:
        m_Texture: {fileID: 0}
        m_Scale: {x: 1, y: 1}
        m_Offset: {x: 0, y: 0}
    - _CloudsCubemap:
        m_Texture: {fileID: 8900000, guid: eb066507e9bb4884e9d201eb874ccf2c, type: 3}
        m_Scale: {x: 1, y: 1}
        m_Offset: {x: 0, y: 0}
    - _Cubemap:
        m_Texture: {fileID: 8900000, guid: ae71550a4c81f73409f14f4d6eca2c0f, type: 3}
        m_Scale: {x: 1, y: 1}
        m_Offset: {x: 0, y: 0}
    - _CubemapBG:
        m_Texture: {fileID: 8900000, guid: 9bf4b810f0cd15f40b90b57122acc109, type: 3}
        m_Scale: {x: 1, y: 1}
        m_Offset: {x: 0, y: 0}
    - _DetailAlbedoMap:
        m_Texture: {fileID: 0}
        m_Scale: {x: 1, y: 1}
        m_Offset: {x: 0, y: 0}
    - _DetailMask:
        m_Texture: {fileID: 0}
        m_Scale: {x: 1, y: 1}
        m_Offset: {x: 0, y: 0}
    - _DetailNormalMap:
        m_Texture: {fileID: 0}
        m_Scale: {x: 1, y: 1}
        m_Offset: {x: 0, y: 0}
    - _EmissionMap:
        m_Texture: {fileID: 0}
        m_Scale: {x: 1, y: 1}
        m_Offset: {x: 0, y: 0}
    - _MainTex:
        m_Texture: {fileID: 0}
        m_Scale: {x: 1, y: 1}
        m_Offset: {x: 0, y: 0}
    - _MetallicGlossMap:
        m_Texture: {fileID: 0}
        m_Scale: {x: 1, y: 1}
        m_Offset: {x: 0, y: 0}
    - _MoonTexture:
        m_Texture: {fileID: 0}
        m_Scale: {x: 1, y: 1}
        m_Offset: {x: 0, y: 0}
    - _Normal:
        m_Texture: {fileID: 0}
        m_Scale: {x: 1, y: 1}
        m_Offset: {x: 0, y: 0}
    - _OcclusionMap:
        m_Texture: {fileID: 0}
        m_Scale: {x: 1, y: 1}
        m_Offset: {x: 0, y: 0}
    - _ParallaxMap:
        m_Texture: {fileID: 0}
        m_Scale: {x: 1, y: 1}
        m_Offset: {x: 0, y: 0}
    - _PatternCubemap:
        m_Texture: {fileID: 8900000, guid: 5e08451c0e8bb7a4f9ca20067695cda7, type: 3}
        m_Scale: {x: 1, y: 1}
        m_Offset: {x: 0, y: 0}
    - _PatternOverlay:
        m_Texture: {fileID: 8900000, guid: 1f3407b97870a2e46864ac55deec53b0, type: 3}
        m_Scale: {x: 1, y: 1}
        m_Offset: {x: 0, y: 0}
    - _SkyPatternOverlay:
        m_Texture: {fileID: 8900000, guid: 9bf4b810f0cd15f40b90b57122acc109, type: 3}
        m_Scale: {x: 1, y: 1}
        m_Offset: {x: 0, y: 0}
    - _Spherical:
        m_Texture: {fileID: 2800000, guid: 61c0b9c0523734e0e91bc6043c72a490, type: 3}
        m_Scale: {x: 1, y: 1}
        m_Offset: {x: 0, y: 0}
    - _Stars:
        m_Texture: {fileID: 2800000, guid: e090bfaf8966fe7459b3af86e0e16f29, type: 3}
        m_Scale: {x: 1, y: 1}
        m_Offset: {x: 0, y: 0}
    - _StarsCubemap:
        m_Texture: {fileID: 8900000, guid: cd8517e16ac507a4ea8c50fa7460ae98, type: 3}
        m_Scale: {x: 1, y: 1}
        m_Offset: {x: 0, y: 0}
    - _StarsFlikerTexture:
        m_Texture: {fileID: 2800000, guid: cd460ee4ac5c1e746b7a734cc7cc64dd, type: 3}
        m_Scale: {x: 1, y: 1}
        m_Offset: {x: 0, y: 0}
    - _Sun:
        m_Texture: {fileID: 2800000, guid: 19982f8bf5fa2ed42b65ac271d4f0279, type: 3}
        m_Scale: {x: 1, y: 1}
        m_Offset: {x: 0, y: 0}
    - _SunTexture:
        m_Texture: {fileID: 2800000, guid: e80870b385adcae48871133b9b5759dd, type: 3}
        m_Scale: {x: 0, y: 0}
        m_Offset: {x: 1, y: 1}
    - _Tex:
        m_Texture: {fileID: 2800000, guid: 623f215c9cf5dc04aa628d4dd7b6bd73, type: 3}
        m_Scale: {x: 1, y: 1}
        m_Offset: {x: 0, y: 0}
    - _Texture:
        m_Texture: {fileID: 2800000, guid: 12726e6bff222df4cbbe3ebde547c297, type: 3}
        m_Scale: {x: 1, y: 1}
        m_Offset: {x: 0, y: 0}
    - _Texture0:
        m_Texture: {fileID: 8900000, guid: 869120ea8bfebbf4eb8d18cf3c5a7ab8, type: 3}
        m_Scale: {x: 1, y: 1}
        m_Offset: {x: 0, y: 0}
    - _TextureSample0:
        m_Texture: {fileID: 2800000, guid: cd460ee4ac5c1e746b7a734cc7cc64dd, type: 3}
        m_Scale: {x: 1, y: 1}
        m_Offset: {x: 0, y: 0}
    - _TextureSample1:
        m_Texture: {fileID: 8900000, guid: 869120ea8bfebbf4eb8d18cf3c5a7ab8, type: 3}
        m_Scale: {x: 1, y: 1}
        m_Offset: {x: 0, y: 0}
    - _TextureSample2:
        m_Texture: {fileID: 0}
        m_Scale: {x: 1, y: 1}
        m_Offset: {x: 0, y: 0}
    - _TopTexture0:
        m_Texture: {fileID: 2800000, guid: 84508b93f15f2b64386ec07486afc7a3, type: 3}
        m_Scale: {x: 1, y: 1}
        m_Offset: {x: 0, y: 0}
    - _TwinklingTexture:
        m_Texture: {fileID: 2800000, guid: 4962b985402794749902f8b024ee1934, type: 3}
        m_Scale: {x: 1, y: 1}
        m_Offset: {x: 0, y: 0}
    - _scaledTexture:
        m_Texture: {fileID: 0}
        m_Scale: {x: 1, y: 1}
        m_Offset: {x: 0, y: 0}
    - _tex:
        m_Texture: {fileID: 2800000, guid: 12726e6bff222df4cbbe3ebde547c297, type: 3}
        m_Scale: {x: 1, y: 1}
        m_Offset: {x: 0, y: 0}
    - _texcoord:
        m_Texture: {fileID: 0}
        m_Scale: {x: 1, y: 1}
        m_Offset: {x: 0, y: 0}
    - _texcoord2:
        m_Texture: {fileID: 0}
        m_Scale: {x: 1, y: 1}
        m_Offset: {x: 0, y: 0}
    - _texture:
        m_Texture: {fileID: 2800000, guid: 64e7766099ad46747a07014e44d0aea1, type: 3}
        m_Scale: {x: 1, y: 1}
        m_Offset: {x: 0, y: 0}
    m_Floats:
    - _BackgroundCat: 1
    - _BackgroundExposure: 1
    - _BackgroundMode: 0
    - _Banner: 1
    - _BuiltInFog: 1
    - _BumpScale: 1
    - _CloudHeight: -0.185
    - _Clouds: 1
    - _CloudsCat: 1
    - _CloudsHeight: 0.15
    - _CloudsIntensity: 1
    - _CloudsLitbySun: 0
    - _CloudsRotation: 0
    - _CloudsRotationSpeed: 1
    - _ColorsCat: 1
    - _Contrast: 2
    - _Contrsat: 1
    - _Cutoff: 0
    - _DetailNormalMapScale: 1
    - _DisableCloudsRotation: 0
    - _DisableDirectionLight: 0
    - _DisableRotation: 0
    - _DstBlend: 0
    - _Enable1Twinkling: 0
    - _EnableBuiltinFog: 0
    - _EnableClouds: 1
    - _EnableCloudsRotation: 1
    - _EnableDirectionLight: 0
    - _EnableFogMessage: 0
    - _EnableMoon: 0
    - _EnablePattern: 1
    - _EnablePatternOverlay: 1
    - _EnableSkyPatternOverlay: 1
    - _EnableStars: 1
    - _EnableStarsHeightMask: 0
    - _EnableStarsRotation: 0
    - _EnableStarsSunMask: 1
    - _EnableStarsTwinkling: 1
    - _EnableSun: 1
    - _EnableSunMask: 1
    - _EnableSunMoon: 1
    - _EnableSunMoonMask: 1
    - _EnableTwinkling: 1
    - _EqHeight: 0.419
    - _EquatorHeight: 0.644
    - _EquatorSmoothness: 0.8
    - _Exposure: 0
    - _Fade: 0
    - _Float0: -1
    - _Float1: 0.836
    - _Float11: 0
    - _Float2: 0
    - _Float3: 8.91
    - _Float4: -1
    - _Float5: -0.2
    - _Float6: 0.01
    - _FogCat: 1
    - _FogFill: 0
    - _FogHeight: 0
    - _FogIntensity: 0.518
    - _FogSmoothness: 0.01
    - _GlossMapScale: 1
    - _Glossiness: 0.5
    - _GlossyReflections: 1
    - _Keyword0: 0
    - _Metallic: 0
    - _Mode: 0
    - _MoonCat: 1
    - _MoonIntensity: 1
    - _MoonSize: 0.5
    - _OcclusionStrength: 1
    - _Parallax: 0.02
    - _PatternCat: 1
    - _PatternContrast: 0.3
    - _PatternOverlay: 1
    - _RoatationSpeed: 0.4
    - _Rotation: 0
    - _RotationSpeed: 0.5
    - _SkyPatternContrast: 0.99
    - _SkyPatternOverlay: 1
    - _SkyboxCat: 1
    - _SkyboxRotation: 0
    - _SmoothnessTextureChannel: 0
    - _SpecularHighlights: 1
    - _SrcBlend: 1
    - _StarFlikerSpeed: 0.05
    - _Stars: 1
    - _StarsAmount: 3
    - _StarsBottomMask: 2
    - _StarsCat: 1
    - _StarsFlikerContrast: 1
    - _StarsHeightMask: 0.1
    - _StarsHeigntMask: 1
    - _StarsHorizonMask: 1
    - _StarsIntensity: 5
    - _StarsLayer: 3
    - _StarsMaskPower: 1
    - _StarsRotation: 360
    - _StarsRotationSpeed: 0.5
    - _StarsSize: 0.6
    - _StarsSunMask: 0.01
    - _SunCat: 1
    - _SunIntensity: 2
    - _SunRadiusB: 0
    - _SunRadoisA: 0
    - _SunSize: 0.6
    - _SunorMoon: 1
    - _TITLE: 1
    - _ToggleSwitch0: 0
    - _TwinklingContrast: 1
    - _TwinklingSpeed: 0.05
    - _TwinklingTextureContrast: 1
    - _UVSec: 0
    - _UseCUBEMAP: 1
    - _UseEnvironmentGradient: 1
    - _UseSkyPatternOverlay: 1
    - _UseTexture: 1
    - _WaveScale: 0
    - _WaveSpeed: 0
    - _ZWrite: 1
    - __dirty: 0
    - _adf: 0
    - _angle: 145
    - _backgroundCat: 1
    - _fresnell: 0
    - _mip: 0
    - _tileing: 4.55
    m_Colors:
    - _CloudLightColor: {r: 0.5620674, g: 0.6149295, b: 0.6764706, a: 1}
    - _CloudShadowColor: {r: 0.03952206, g: 0.12203295, b: 0.31617644, a: 1}
    - _CloudsLightColor: {r: 0.7065311, g: 0.9378087, b: 0.9705882, a: 1}
    - _CloudsShadowColor: {r: 0, g: 0.37383357, b: 0.5588235, a: 1}
    - _Color: {r: 1, g: 1, b: 1, a: 1}
    - _Color0: {r: 0, g: 0.5054344, b: 1, a: 0}
    - _Color1: {r: 1, g: 1, b: 1, a: 0}
    - _Color2: {r: 0.059472326, g: 0.25068596, b: 0.8088235, a: 0}
    - _EmissionColor: {r: 0, g: 0, b: 0, a: 1}
    - _Eq: {r: 1, g: 0.6769777, b: 0.330882, a: 0}
    - _EquatorColor: {r: 0, g: 0.8602941, b: 0.8037578, a: 1}
    - _Ground: {r: 0.4779411, g: 0.43111518, b: 0.23545504, a: 0}
    - _GroundColor: {r: 0.30211937, g: 0.724708, b: 0.9338235, a: 1}
    - _MoonColor: {r: 1, g: 1, b: 1, a: 1}
    - _Sky: {r: 0.6691177, g: 0.29519898, b: 0.29519898, a: 0}
    - _SkyColor: {r: 0, g: 0.08650014, b: 0.53676474, a: 1}
    - _SkyboxRotationAxis: {r: 0, g: 1, b: 0, a: 0}
    - _Skycol: {r: 0.27941146, g: 0.64219046, b: 1, a: 0}
    - _StarsRotationAxis: {r: 0, g: 1, b: 0, a: 0}
    - _SunColor: {r: 0.5514706, g: 0.8515212, b: 1, a: 1}
    - _Tint: {r: 1, g: 1, b: 1, a: 0}
    - _Vector1: {r: 0, g: 1, b: 1, a: 0}
    - _water: {r: 0.5, g: 0.5, b: 0.5, a: 1}
  m_BuildTextureStacks: []
