%YAML 1.1
%TAG !u! tag:unity3d.com,2011:
--- !u!181963792 &2655988077585873504
Preset:
  m_ObjectHideFlags: 0
  m_CorrespondingSourceObject: {fileID: 0}
  m_PrefabInstance: {fileID: 0}
  m_PrefabAsset: {fileID: 0}
  m_Name: FBXImporter
  m_TargetType:
    m_NativeTypeID: 1041
    m_ManagedTypePPtr: {fileID: 0}
    m_ManagedTypeFallback: 
  m_Properties:
  - target: {fileID: 0}
    propertyPath: m_ExternalObjects.Array.size
    value: 0
    objectReference: {fileID: 0}
  - target: {fileID: 0}
    propertyPath: m_MaterialImportMode
    value: 2
    objectReference: {fileID: 0}
  - target: {fileID: 0}
    propertyPath: m_MaterialName
    value: 0
    objectReference: {fileID: 0}
  - target: {fileID: 0}
    propertyPath: m_MaterialSearch
    value: 1
    objectReference: {fileID: 0}
  - target: {fileID: 0}
    propertyPath: m_MaterialLocation
    value: 1
    objectReference: {fileID: 0}
  - target: {fileID: 0}
    propertyPath: m_LegacyGenerateAnimations
    value: 4
    objectReference: {fileID: 0}
  - target: {fileID: 0}
    propertyPath: m_BakeSimulation
    value: 0
    objectReference: {fileID: 0}
  - target: {fileID: 0}
    propertyPath: m_ResampleCurves
    value: 1
    objectReference: {fileID: 0}
  - target: {fileID: 0}
    propertyPath: m_OptimizeGameObjects
    value: 0
    objectReference: {fileID: 0}
  - target: {fileID: 0}
    propertyPath: m_MotionNodeName
    value: 
    objectReference: {fileID: 0}
  - target: {fileID: 0}
    propertyPath: m_RigImportErrors
    value: 
    objectReference: {fileID: 0}
  - target: {fileID: 0}
    propertyPath: m_RigImportWarnings
    value: 
    objectReference: {fileID: 0}
  - target: {fileID: 0}
    propertyPath: m_AnimationImportErrors
    value: 
    objectReference: {fileID: 0}
  - target: {fileID: 0}
    propertyPath: m_AnimationImportWarnings
    value: 
    objectReference: {fileID: 0}
  - target: {fileID: 0}
    propertyPath: m_AnimationRetargetingWarnings
    value: 
    objectReference: {fileID: 0}
  - target: {fileID: 0}
    propertyPath: m_AnimationDoRetargetingWarnings
    value: 0
    objectReference: {fileID: 0}
  - target: {fileID: 0}
    propertyPath: m_ImportAnimatedCustomProperties
    value: 0
    objectReference: {fileID: 0}
  - target: {fileID: 0}
    propertyPath: m_ImportConstraints
    value: 0
    objectReference: {fileID: 0}
  - target: {fileID: 0}
    propertyPath: m_AnimationCompression
    value: 1
    objectReference: {fileID: 0}
  - target: {fileID: 0}
    propertyPath: m_AnimationRotationError
    value: 0.5
    objectReference: {fileID: 0}
  - target: {fileID: 0}
    propertyPath: m_AnimationPositionError
    value: 0.5
    objectReference: {fileID: 0}
  - target: {fileID: 0}
    propertyPath: m_AnimationScaleError
    value: 0.5
    objectReference: {fileID: 0}
  - target: {fileID: 0}
    propertyPath: m_AnimationWrapMode
    value: 0
    objectReference: {fileID: 0}
  - target: {fileID: 0}
    propertyPath: m_ExtraExposedTransformPaths.Array.size
    value: 0
    objectReference: {fileID: 0}
  - target: {fileID: 0}
    propertyPath: m_ExtraUserProperties.Array.size
    value: 0
    objectReference: {fileID: 0}
  - target: {fileID: 0}
    propertyPath: m_ClipAnimations.Array.size
    value: 3
    objectReference: {fileID: 0}
  - target: {fileID: 0}
    propertyPath: m_ClipAnimations.Array.data[0].name
    value: Attack
    objectReference: {fileID: 0}
  - target: {fileID: 0}
    propertyPath: m_ClipAnimations.Array.data[0].takeName
    value: Attack
    objectReference: {fileID: 0}
  - target: {fileID: 0}
    propertyPath: m_ClipAnimations.Array.data[0].internalID
    value: 0
    objectReference: {fileID: 0}
  - target: {fileID: 0}
    propertyPath: m_ClipAnimations.Array.data[0].firstFrame
    value: 0
    objectReference: {fileID: 0}
  - target: {fileID: 0}
    propertyPath: m_ClipAnimations.Array.data[0].lastFrame
    value: 29
    objectReference: {fileID: 0}
  - target: {fileID: 0}
    propertyPath: m_ClipAnimations.Array.data[0].wrapMode
    value: 0
    objectReference: {fileID: 0}
  - target: {fileID: 0}
    propertyPath: m_ClipAnimations.Array.data[0].orientationOffsetY
    value: 0
    objectReference: {fileID: 0}
  - target: {fileID: 0}
    propertyPath: m_ClipAnimations.Array.data[0].level
    value: 0
    objectReference: {fileID: 0}
  - target: {fileID: 0}
    propertyPath: m_ClipAnimations.Array.data[0].cycleOffset
    value: 0
    objectReference: {fileID: 0}
  - target: {fileID: 0}
    propertyPath: m_ClipAnimations.Array.data[0].loop
    value: 0
    objectReference: {fileID: 0}
  - target: {fileID: 0}
    propertyPath: m_ClipAnimations.Array.data[0].hasAdditiveReferencePose
    value: 0
    objectReference: {fileID: 0}
  - target: {fileID: 0}
    propertyPath: m_ClipAnimations.Array.data[0].loopTime
    value: 1
    objectReference: {fileID: 0}
  - target: {fileID: 0}
    propertyPath: m_ClipAnimations.Array.data[0].loopBlend
    value: 0
    objectReference: {fileID: 0}
  - target: {fileID: 0}
    propertyPath: m_ClipAnimations.Array.data[0].loopBlendOrientation
    value: 0
    objectReference: {fileID: 0}
  - target: {fileID: 0}
    propertyPath: m_ClipAnimations.Array.data[0].loopBlendPositionY
    value: 0
    objectReference: {fileID: 0}
  - target: {fileID: 0}
    propertyPath: m_ClipAnimations.Array.data[0].loopBlendPositionXZ
    value: 0
    objectReference: {fileID: 0}
  - target: {fileID: 0}
    propertyPath: m_ClipAnimations.Array.data[0].keepOriginalOrientation
    value: 0
    objectReference: {fileID: 0}
  - target: {fileID: 0}
    propertyPath: m_ClipAnimations.Array.data[0].keepOriginalPositionY
    value: 1
    objectReference: {fileID: 0}
  - target: {fileID: 0}
    propertyPath: m_ClipAnimations.Array.data[0].keepOriginalPositionXZ
    value: 0
    objectReference: {fileID: 0}
  - target: {fileID: 0}
    propertyPath: m_ClipAnimations.Array.data[0].heightFromFeet
    value: 0
    objectReference: {fileID: 0}
  - target: {fileID: 0}
    propertyPath: m_ClipAnimations.Array.data[0].mirror
    value: 0
    objectReference: {fileID: 0}
  - target: {fileID: 0}
    propertyPath: m_ClipAnimations.Array.data[0].bodyMask.Array.size
    value: 13
    objectReference: {fileID: 0}
  - target: {fileID: 0}
    propertyPath: m_ClipAnimations.Array.data[0].bodyMask.Array.data[0]
    value: 1
    objectReference: {fileID: 0}
  - target: {fileID: 0}
    propertyPath: m_ClipAnimations.Array.data[0].bodyMask.Array.data[1]
    value: 1
    objectReference: {fileID: 0}
  - target: {fileID: 0}
    propertyPath: m_ClipAnimations.Array.data[0].bodyMask.Array.data[2]
    value: 1
    objectReference: {fileID: 0}
  - target: {fileID: 0}
    propertyPath: m_ClipAnimations.Array.data[0].bodyMask.Array.data[3]
    value: 1
    objectReference: {fileID: 0}
  - target: {fileID: 0}
    propertyPath: m_ClipAnimations.Array.data[0].bodyMask.Array.data[4]
    value: 1
    objectReference: {fileID: 0}
  - target: {fileID: 0}
    propertyPath: m_ClipAnimations.Array.data[0].bodyMask.Array.data[5]
    value: 1
    objectReference: {fileID: 0}
  - target: {fileID: 0}
    propertyPath: m_ClipAnimations.Array.data[0].bodyMask.Array.data[6]
    value: 1
    objectReference: {fileID: 0}
  - target: {fileID: 0}
    propertyPath: m_ClipAnimations.Array.data[0].bodyMask.Array.data[7]
    value: 1
    objectReference: {fileID: 0}
  - target: {fileID: 0}
    propertyPath: m_ClipAnimations.Array.data[0].bodyMask.Array.data[8]
    value: 1
    objectReference: {fileID: 0}
  - target: {fileID: 0}
    propertyPath: m_ClipAnimations.Array.data[0].bodyMask.Array.data[9]
    value: 1
    objectReference: {fileID: 0}
  - target: {fileID: 0}
    propertyPath: m_ClipAnimations.Array.data[0].bodyMask.Array.data[10]
    value: 1
    objectReference: {fileID: 0}
  - target: {fileID: 0}
    propertyPath: m_ClipAnimations.Array.data[0].bodyMask.Array.data[11]
    value: 1
    objectReference: {fileID: 0}
  - target: {fileID: 0}
    propertyPath: m_ClipAnimations.Array.data[0].bodyMask.Array.data[12]
    value: 1
    objectReference: {fileID: 0}
  - target: {fileID: 0}
    propertyPath: m_ClipAnimations.Array.data[0].curves.Array.size
    value: 0
    objectReference: {fileID: 0}
  - target: {fileID: 0}
    propertyPath: m_ClipAnimations.Array.data[0].events.Array.size
    value: 0
    objectReference: {fileID: 0}
  - target: {fileID: 0}
    propertyPath: m_ClipAnimations.Array.data[0].transformMask.Array.size
    value: 0
    objectReference: {fileID: 0}
  - target: {fileID: 0}
    propertyPath: m_ClipAnimations.Array.data[0].maskType
    value: 3
    objectReference: {fileID: 0}
  - target: {fileID: 0}
    propertyPath: m_ClipAnimations.Array.data[0].maskSource
    value: 
    objectReference: {fileID: 0}
  - target: {fileID: 0}
    propertyPath: m_ClipAnimations.Array.data[0].additiveReferencePoseFrame
    value: 0
    objectReference: {fileID: 0}
  - target: {fileID: 0}
    propertyPath: m_ClipAnimations.Array.data[1].name
    value: Idle
    objectReference: {fileID: 0}
  - target: {fileID: 0}
    propertyPath: m_ClipAnimations.Array.data[1].takeName
    value: Idle
    objectReference: {fileID: 0}
  - target: {fileID: 0}
    propertyPath: m_ClipAnimations.Array.data[1].internalID
    value: 0
    objectReference: {fileID: 0}
  - target: {fileID: 0}
    propertyPath: m_ClipAnimations.Array.data[1].firstFrame
    value: 0
    objectReference: {fileID: 0}
  - target: {fileID: 0}
    propertyPath: m_ClipAnimations.Array.data[1].lastFrame
    value: 39
    objectReference: {fileID: 0}
  - target: {fileID: 0}
    propertyPath: m_ClipAnimations.Array.data[1].wrapMode
    value: 0
    objectReference: {fileID: 0}
  - target: {fileID: 0}
    propertyPath: m_ClipAnimations.Array.data[1].orientationOffsetY
    value: 0
    objectReference: {fileID: 0}
  - target: {fileID: 0}
    propertyPath: m_ClipAnimations.Array.data[1].level
    value: 0
    objectReference: {fileID: 0}
  - target: {fileID: 0}
    propertyPath: m_ClipAnimations.Array.data[1].cycleOffset
    value: 0
    objectReference: {fileID: 0}
  - target: {fileID: 0}
    propertyPath: m_ClipAnimations.Array.data[1].loop
    value: 0
    objectReference: {fileID: 0}
  - target: {fileID: 0}
    propertyPath: m_ClipAnimations.Array.data[1].hasAdditiveReferencePose
    value: 0
    objectReference: {fileID: 0}
  - target: {fileID: 0}
    propertyPath: m_ClipAnimations.Array.data[1].loopTime
    value: 1
    objectReference: {fileID: 0}
  - target: {fileID: 0}
    propertyPath: m_ClipAnimations.Array.data[1].loopBlend
    value: 0
    objectReference: {fileID: 0}
  - target: {fileID: 0}
    propertyPath: m_ClipAnimations.Array.data[1].loopBlendOrientation
    value: 0
    objectReference: {fileID: 0}
  - target: {fileID: 0}
    propertyPath: m_ClipAnimations.Array.data[1].loopBlendPositionY
    value: 0
    objectReference: {fileID: 0}
  - target: {fileID: 0}
    propertyPath: m_ClipAnimations.Array.data[1].loopBlendPositionXZ
    value: 0
    objectReference: {fileID: 0}
  - target: {fileID: 0}
    propertyPath: m_ClipAnimations.Array.data[1].keepOriginalOrientation
    value: 0
    objectReference: {fileID: 0}
  - target: {fileID: 0}
    propertyPath: m_ClipAnimations.Array.data[1].keepOriginalPositionY
    value: 1
    objectReference: {fileID: 0}
  - target: {fileID: 0}
    propertyPath: m_ClipAnimations.Array.data[1].keepOriginalPositionXZ
    value: 0
    objectReference: {fileID: 0}
  - target: {fileID: 0}
    propertyPath: m_ClipAnimations.Array.data[1].heightFromFeet
    value: 0
    objectReference: {fileID: 0}
  - target: {fileID: 0}
    propertyPath: m_ClipAnimations.Array.data[1].mirror
    value: 0
    objectReference: {fileID: 0}
  - target: {fileID: 0}
    propertyPath: m_ClipAnimations.Array.data[1].bodyMask.Array.size
    value: 13
    objectReference: {fileID: 0}
  - target: {fileID: 0}
    propertyPath: m_ClipAnimations.Array.data[1].bodyMask.Array.data[0]
    value: 1
    objectReference: {fileID: 0}
  - target: {fileID: 0}
    propertyPath: m_ClipAnimations.Array.data[1].bodyMask.Array.data[1]
    value: 1
    objectReference: {fileID: 0}
  - target: {fileID: 0}
    propertyPath: m_ClipAnimations.Array.data[1].bodyMask.Array.data[2]
    value: 1
    objectReference: {fileID: 0}
  - target: {fileID: 0}
    propertyPath: m_ClipAnimations.Array.data[1].bodyMask.Array.data[3]
    value: 1
    objectReference: {fileID: 0}
  - target: {fileID: 0}
    propertyPath: m_ClipAnimations.Array.data[1].bodyMask.Array.data[4]
    value: 1
    objectReference: {fileID: 0}
  - target: {fileID: 0}
    propertyPath: m_ClipAnimations.Array.data[1].bodyMask.Array.data[5]
    value: 1
    objectReference: {fileID: 0}
  - target: {fileID: 0}
    propertyPath: m_ClipAnimations.Array.data[1].bodyMask.Array.data[6]
    value: 1
    objectReference: {fileID: 0}
  - target: {fileID: 0}
    propertyPath: m_ClipAnimations.Array.data[1].bodyMask.Array.data[7]
    value: 1
    objectReference: {fileID: 0}
  - target: {fileID: 0}
    propertyPath: m_ClipAnimations.Array.data[1].bodyMask.Array.data[8]
    value: 1
    objectReference: {fileID: 0}
  - target: {fileID: 0}
    propertyPath: m_ClipAnimations.Array.data[1].bodyMask.Array.data[9]
    value: 1
    objectReference: {fileID: 0}
  - target: {fileID: 0}
    propertyPath: m_ClipAnimations.Array.data[1].bodyMask.Array.data[10]
    value: 1
    objectReference: {fileID: 0}
  - target: {fileID: 0}
    propertyPath: m_ClipAnimations.Array.data[1].bodyMask.Array.data[11]
    value: 1
    objectReference: {fileID: 0}
  - target: {fileID: 0}
    propertyPath: m_ClipAnimations.Array.data[1].bodyMask.Array.data[12]
    value: 1
    objectReference: {fileID: 0}
  - target: {fileID: 0}
    propertyPath: m_ClipAnimations.Array.data[1].curves.Array.size
    value: 0
    objectReference: {fileID: 0}
  - target: {fileID: 0}
    propertyPath: m_ClipAnimations.Array.data[1].events.Array.size
    value: 0
    objectReference: {fileID: 0}
  - target: {fileID: 0}
    propertyPath: m_ClipAnimations.Array.data[1].transformMask.Array.size
    value: 0
    objectReference: {fileID: 0}
  - target: {fileID: 0}
    propertyPath: m_ClipAnimations.Array.data[1].maskType
    value: 3
    objectReference: {fileID: 0}
  - target: {fileID: 0}
    propertyPath: m_ClipAnimations.Array.data[1].maskSource
    value: 
    objectReference: {fileID: 0}
  - target: {fileID: 0}
    propertyPath: m_ClipAnimations.Array.data[1].additiveReferencePoseFrame
    value: 0
    objectReference: {fileID: 0}
  - target: {fileID: 0}
    propertyPath: m_ClipAnimations.Array.data[2].name
    value: Move
    objectReference: {fileID: 0}
  - target: {fileID: 0}
    propertyPath: m_ClipAnimations.Array.data[2].takeName
    value: Move
    objectReference: {fileID: 0}
  - target: {fileID: 0}
    propertyPath: m_ClipAnimations.Array.data[2].internalID
    value: 0
    objectReference: {fileID: 0}
  - target: {fileID: 0}
    propertyPath: m_ClipAnimations.Array.data[2].firstFrame
    value: 0
    objectReference: {fileID: 0}
  - target: {fileID: 0}
    propertyPath: m_ClipAnimations.Array.data[2].lastFrame
    value: 16
    objectReference: {fileID: 0}
  - target: {fileID: 0}
    propertyPath: m_ClipAnimations.Array.data[2].wrapMode
    value: 0
    objectReference: {fileID: 0}
  - target: {fileID: 0}
    propertyPath: m_ClipAnimations.Array.data[2].orientationOffsetY
    value: 0
    objectReference: {fileID: 0}
  - target: {fileID: 0}
    propertyPath: m_ClipAnimations.Array.data[2].level
    value: 0
    objectReference: {fileID: 0}
  - target: {fileID: 0}
    propertyPath: m_ClipAnimations.Array.data[2].cycleOffset
    value: 0
    objectReference: {fileID: 0}
  - target: {fileID: 0}
    propertyPath: m_ClipAnimations.Array.data[2].loop
    value: 0
    objectReference: {fileID: 0}
  - target: {fileID: 0}
    propertyPath: m_ClipAnimations.Array.data[2].hasAdditiveReferencePose
    value: 0
    objectReference: {fileID: 0}
  - target: {fileID: 0}
    propertyPath: m_ClipAnimations.Array.data[2].loopTime
    value: 1
    objectReference: {fileID: 0}
  - target: {fileID: 0}
    propertyPath: m_ClipAnimations.Array.data[2].loopBlend
    value: 0
    objectReference: {fileID: 0}
  - target: {fileID: 0}
    propertyPath: m_ClipAnimations.Array.data[2].loopBlendOrientation
    value: 0
    objectReference: {fileID: 0}
  - target: {fileID: 0}
    propertyPath: m_ClipAnimations.Array.data[2].loopBlendPositionY
    value: 0
    objectReference: {fileID: 0}
  - target: {fileID: 0}
    propertyPath: m_ClipAnimations.Array.data[2].loopBlendPositionXZ
    value: 0
    objectReference: {fileID: 0}
  - target: {fileID: 0}
    propertyPath: m_ClipAnimations.Array.data[2].keepOriginalOrientation
    value: 0
    objectReference: {fileID: 0}
  - target: {fileID: 0}
    propertyPath: m_ClipAnimations.Array.data[2].keepOriginalPositionY
    value: 1
    objectReference: {fileID: 0}
  - target: {fileID: 0}
    propertyPath: m_ClipAnimations.Array.data[2].keepOriginalPositionXZ
    value: 0
    objectReference: {fileID: 0}
  - target: {fileID: 0}
    propertyPath: m_ClipAnimations.Array.data[2].heightFromFeet
    value: 0
    objectReference: {fileID: 0}
  - target: {fileID: 0}
    propertyPath: m_ClipAnimations.Array.data[2].mirror
    value: 0
    objectReference: {fileID: 0}
  - target: {fileID: 0}
    propertyPath: m_ClipAnimations.Array.data[2].bodyMask.Array.size
    value: 13
    objectReference: {fileID: 0}
  - target: {fileID: 0}
    propertyPath: m_ClipAnimations.Array.data[2].bodyMask.Array.data[0]
    value: 1
    objectReference: {fileID: 0}
  - target: {fileID: 0}
    propertyPath: m_ClipAnimations.Array.data[2].bodyMask.Array.data[1]
    value: 1
    objectReference: {fileID: 0}
  - target: {fileID: 0}
    propertyPath: m_ClipAnimations.Array.data[2].bodyMask.Array.data[2]
    value: 1
    objectReference: {fileID: 0}
  - target: {fileID: 0}
    propertyPath: m_ClipAnimations.Array.data[2].bodyMask.Array.data[3]
    value: 1
    objectReference: {fileID: 0}
  - target: {fileID: 0}
    propertyPath: m_ClipAnimations.Array.data[2].bodyMask.Array.data[4]
    value: 1
    objectReference: {fileID: 0}
  - target: {fileID: 0}
    propertyPath: m_ClipAnimations.Array.data[2].bodyMask.Array.data[5]
    value: 1
    objectReference: {fileID: 0}
  - target: {fileID: 0}
    propertyPath: m_ClipAnimations.Array.data[2].bodyMask.Array.data[6]
    value: 1
    objectReference: {fileID: 0}
  - target: {fileID: 0}
    propertyPath: m_ClipAnimations.Array.data[2].bodyMask.Array.data[7]
    value: 1
    objectReference: {fileID: 0}
  - target: {fileID: 0}
    propertyPath: m_ClipAnimations.Array.data[2].bodyMask.Array.data[8]
    value: 1
    objectReference: {fileID: 0}
  - target: {fileID: 0}
    propertyPath: m_ClipAnimations.Array.data[2].bodyMask.Array.data[9]
    value: 1
    objectReference: {fileID: 0}
  - target: {fileID: 0}
    propertyPath: m_ClipAnimations.Array.data[2].bodyMask.Array.data[10]
    value: 1
    objectReference: {fileID: 0}
  - target: {fileID: 0}
    propertyPath: m_ClipAnimations.Array.data[2].bodyMask.Array.data[11]
    value: 1
    objectReference: {fileID: 0}
  - target: {fileID: 0}
    propertyPath: m_ClipAnimations.Array.data[2].bodyMask.Array.data[12]
    value: 1
    objectReference: {fileID: 0}
  - target: {fileID: 0}
    propertyPath: m_ClipAnimations.Array.data[2].curves.Array.size
    value: 0
    objectReference: {fileID: 0}
  - target: {fileID: 0}
    propertyPath: m_ClipAnimations.Array.data[2].events.Array.size
    value: 0
    objectReference: {fileID: 0}
  - target: {fileID: 0}
    propertyPath: m_ClipAnimations.Array.data[2].transformMask.Array.size
    value: 0
    objectReference: {fileID: 0}
  - target: {fileID: 0}
    propertyPath: m_ClipAnimations.Array.data[2].maskType
    value: 3
    objectReference: {fileID: 0}
  - target: {fileID: 0}
    propertyPath: m_ClipAnimations.Array.data[2].maskSource
    value: 
    objectReference: {fileID: 0}
  - target: {fileID: 0}
    propertyPath: m_ClipAnimations.Array.data[2].additiveReferencePoseFrame
    value: 0
    objectReference: {fileID: 0}
  - target: {fileID: 0}
    propertyPath: m_IsReadable
    value: 1
    objectReference: {fileID: 0}
  - target: {fileID: 0}
    propertyPath: m_LODScreenPercentages.Array.size
    value: 0
    objectReference: {fileID: 0}
  - target: {fileID: 0}
    propertyPath: m_GlobalScale
    value: 1
    objectReference: {fileID: 0}
  - target: {fileID: 0}
    propertyPath: m_MeshCompression
    value: 3
    objectReference: {fileID: 0}
  - target: {fileID: 0}
    propertyPath: m_AddColliders
    value: 0
    objectReference: {fileID: 0}
  - target: {fileID: 0}
    propertyPath: m_UseSRGBMaterialColor
    value: 1
    objectReference: {fileID: 0}
  - target: {fileID: 0}
    propertyPath: m_SortHierarchyByName
    value: 1
    objectReference: {fileID: 0}
  - target: {fileID: 0}
    propertyPath: m_ImportVisibility
    value: 1
    objectReference: {fileID: 0}
  - target: {fileID: 0}
    propertyPath: m_ImportBlendShapes
    value: 0
    objectReference: {fileID: 0}
  - target: {fileID: 0}
    propertyPath: m_ImportCameras
    value: 0
    objectReference: {fileID: 0}
  - target: {fileID: 0}
    propertyPath: m_ImportLights
    value: 0
    objectReference: {fileID: 0}
  - target: {fileID: 0}
    propertyPath: swapUVChannels
    value: 0
    objectReference: {fileID: 0}
  - target: {fileID: 0}
    propertyPath: generateSecondaryUV
    value: 0
    objectReference: {fileID: 0}
  - target: {fileID: 0}
    propertyPath: m_UseFileUnits
    value: 1
    objectReference: {fileID: 0}
  - target: {fileID: 0}
    propertyPath: keepQuads
    value: 0
    objectReference: {fileID: 0}
  - target: {fileID: 0}
    propertyPath: weldVertices
    value: 1
    objectReference: {fileID: 0}
  - target: {fileID: 0}
    propertyPath: bakeAxisConversion
    value: 0
    objectReference: {fileID: 0}
  - target: {fileID: 0}
    propertyPath: m_PreserveHierarchy
    value: 0
    objectReference: {fileID: 0}
  - target: {fileID: 0}
    propertyPath: skinWeightsMode
    value: 0
    objectReference: {fileID: 0}
  - target: {fileID: 0}
    propertyPath: maxBonesPerVertex
    value: 4
    objectReference: {fileID: 0}
  - target: {fileID: 0}
    propertyPath: minBoneWeight
    value: 0.001
    objectReference: {fileID: 0}
  - target: {fileID: 0}
    propertyPath: meshOptimizationFlags
    value: -1
    objectReference: {fileID: 0}
  - target: {fileID: 0}
    propertyPath: indexFormat
    value: 0
    objectReference: {fileID: 0}
  - target: {fileID: 0}
    propertyPath: secondaryUVAngleDistortion
    value: 8
    objectReference: {fileID: 0}
  - target: {fileID: 0}
    propertyPath: secondaryUVAreaDistortion
    value: 15.000001
    objectReference: {fileID: 0}
  - target: {fileID: 0}
    propertyPath: secondaryUVHardAngle
    value: 88
    objectReference: {fileID: 0}
  - target: {fileID: 0}
    propertyPath: secondaryUVMarginMethod
    value: 1
    objectReference: {fileID: 0}
  - target: {fileID: 0}
    propertyPath: secondaryUVMinLightmapResolution
    value: 40
    objectReference: {fileID: 0}
  - target: {fileID: 0}
    propertyPath: secondaryUVMinObjectScale
    value: 1
    objectReference: {fileID: 0}
  - target: {fileID: 0}
    propertyPath: secondaryUVPackMargin
    value: 4
    objectReference: {fileID: 0}
  - target: {fileID: 0}
    propertyPath: m_UseFileScale
    value: 1
    objectReference: {fileID: 0}
  - target: {fileID: 0}
    propertyPath: normalSmoothAngle
    value: 60
    objectReference: {fileID: 0}
  - target: {fileID: 0}
    propertyPath: normalImportMode
    value: 0
    objectReference: {fileID: 0}
  - target: {fileID: 0}
    propertyPath: tangentImportMode
    value: 3
    objectReference: {fileID: 0}
  - target: {fileID: 0}
    propertyPath: normalCalculationMode
    value: 4
    objectReference: {fileID: 0}
  - target: {fileID: 0}
    propertyPath: legacyComputeAllNormalsFromSmoothingGroupsWhenMeshHasBlendShapes
    value: 0
    objectReference: {fileID: 0}
  - target: {fileID: 0}
    propertyPath: blendShapeNormalImportMode
    value: 1
    objectReference: {fileID: 0}
  - target: {fileID: 0}
    propertyPath: normalSmoothingSource
    value: 0
    objectReference: {fileID: 0}
  - target: {fileID: 0}
    propertyPath: m_ReferencedClips.Array.size
    value: 0
    objectReference: {fileID: 0}
  - target: {fileID: 0}
    propertyPath: m_ImportAnimation
    value: 1
    objectReference: {fileID: 0}
  - target: {fileID: 0}
    propertyPath: m_HumanDescription.m_Human.Array.size
    value: 0
    objectReference: {fileID: 0}
  - target: {fileID: 0}
    propertyPath: m_HumanDescription.m_Skeleton.Array.size
    value: 0
    objectReference: {fileID: 0}
  - target: {fileID: 0}
    propertyPath: m_HumanDescription.m_ArmTwist
    value: 0.5
    objectReference: {fileID: 0}
  - target: {fileID: 0}
    propertyPath: m_HumanDescription.m_ForeArmTwist
    value: 0.5
    objectReference: {fileID: 0}
  - target: {fileID: 0}
    propertyPath: m_HumanDescription.m_UpperLegTwist
    value: 0.5
    objectReference: {fileID: 0}
  - target: {fileID: 0}
    propertyPath: m_HumanDescription.m_LegTwist
    value: 0.5
    objectReference: {fileID: 0}
  - target: {fileID: 0}
    propertyPath: m_HumanDescription.m_ArmStretch
    value: 0.05
    objectReference: {fileID: 0}
  - target: {fileID: 0}
    propertyPath: m_HumanDescription.m_LegStretch
    value: 0.05
    objectReference: {fileID: 0}
  - target: {fileID: 0}
    propertyPath: m_HumanDescription.m_FeetSpacing
    value: 0
    objectReference: {fileID: 0}
  - target: {fileID: 0}
    propertyPath: m_HumanDescription.m_GlobalScale
    value: 1
    objectReference: {fileID: 0}
  - target: {fileID: 0}
    propertyPath: m_HumanDescription.m_RootMotionBoneName
    value: 
    objectReference: {fileID: 0}
  - target: {fileID: 0}
    propertyPath: m_HumanDescription.m_HasTranslationDoF
    value: 0
    objectReference: {fileID: 0}
  - target: {fileID: 0}
    propertyPath: m_HumanDescription.m_HasExtraRoot
    value: 0
    objectReference: {fileID: 0}
  - target: {fileID: 0}
    propertyPath: m_HumanDescription.m_SkeletonHasParents
    value: 1
    objectReference: {fileID: 0}
  - target: {fileID: 0}
    propertyPath: m_LastHumanDescriptionAvatarSource
    value: 
    objectReference: {fileID: 0}
  - target: {fileID: 0}
    propertyPath: m_AutoGenerateAvatarMappingIfUnspecified
    value: 1
    objectReference: {fileID: 0}
  - target: {fileID: 0}
    propertyPath: m_AnimationType
    value: 2
    objectReference: {fileID: 0}
  - target: {fileID: 0}
    propertyPath: m_HumanoidOversampling
    value: 1
    objectReference: {fileID: 0}
  - target: {fileID: 0}
    propertyPath: m_AvatarSetup
    value: 0
    objectReference: {fileID: 0}
  - target: {fileID: 0}
    propertyPath: m_AddHumanoidExtraRootOnlyWhenUsingAvatar
    value: 1
    objectReference: {fileID: 0}
  - target: {fileID: 0}
    propertyPath: m_AdditionalBone
    value: 0
    objectReference: {fileID: 0}
  - target: {fileID: 0}
    propertyPath: m_UserData
    value: 
    objectReference: {fileID: 0}
  - target: {fileID: 0}
    propertyPath: m_AssetBundleName
    value: 
    objectReference: {fileID: 0}
  - target: {fileID: 0}
    propertyPath: m_AssetBundleVariant
    value: 
    objectReference: {fileID: 0}
  m_ExcludedProperties: []
