%YAML 1.1
%TAG !u! tag:unity3d.com,2011:
--- !u!1386491679 &1
PresetManager:
  m_ObjectHideFlags: 0
  serializedVersion: 2
  m_DefaultPresets:
  - first:
      m_NativeTypeID: 54
      m_ManagedTypePPtr: {fileID: 0}
      m_ManagedTypeFallback: 
    second:
    - m_Preset: {fileID: 2655988077585873504, guid: 44f1fd31a8e8b8d44ab77fbc7bd37b0e, type: 2}
      m_Filter: 
      m_Disabled: 0
    - m_Preset: {fileID: 0}
      m_Filter: 
      m_Disabled: 0
  - first:
      m_NativeTypeID: 135
      m_ManagedTypePPtr: {fileID: 0}
      m_ManagedTypeFallback: 
    second:
    - m_Preset: {fileID: 2655988077585873504, guid: d801288549138094cb36cce3a492827e, type: 2}
      m_Filter: 
      m_Disabled: 0
    - m_Preset: {fileID: 0}
      m_Filter: 
      m_Disabled: 0
  - first:
      m_NativeTypeID: 114
      m_ManagedTypePPtr: {fileID: 11500000, guid: cfa30ad0ee0cf1643980c6b6888763a7, type: 3}
      m_ManagedTypeFallback: 
    second:
    - m_Preset: {fileID: 2655988077585873504, guid: 329fb0587d36f774b9e70eb977486add, type: 2}
      m_Filter: 
      m_Disabled: 0
    - m_Preset: {fileID: 0}
      m_Filter: 
      m_Disabled: 0
