%YAML 1.1
%TAG !u! tag:unity3d.com,2011:
--- !u!78 &1
TagManager:
  serializedVersion: 2
  tags:
  - Plane
  - Player Monster
  - Enemy Monster
  - Sea
  - NormalMap
  - EvolveMap
  - BossMap
  - AttackFX
  layers:
  - Default
  - TransparentFX
  - Ignore Raycast
  - FX
  - Water
  - UI
  - MonsterBall
  - Walkable
  - Glowable
  - 
  - 
  - 
  - 
  - 
  - 
  - 
  - 
  - 
  - 
  - 
  - 
  - 
  - 
  - 
  - 
  - 
  - 
  - 
  - 
  - 
  - 
  - 
  m_SortingLayers:
  - name: Default
    uniqueID: 0
    locked: 0
