Level (0),PKM 1 (1),PKM 2 (2),PKM 3 (3),PKM 4 (0),PKM 5 (5),PKM 6 (6),PKM 7 (7),PKM 8 (8),PKM 9 (9),PKM 10 (10),PKM 11 (11),PKM 12 (12),Max Monster Lv2 (13),Map Type (14)
1,1,2,5,,,,,,,,,,0,0
2,1,2,5,,,,,,,,,,0,0
3,1,2,5,,,,,,,,,,0,1
4,1,2,5,,,,,,,,,,0,0
5,1,2,5,,,,,,,,,,0,0
6,1,2,5,,,,,,,,,,0,1
7,1,2,5,,,,,,,,,,0,2
8,1,2,5,,,,,,,,,,0,0
9,1,2,5,,,,,,,,,,0,0
10,1,2,5,,,,,,,,,,0,0
11,2,3,4,5,,,,,,,,,0,0
12,4,5,6,,,,,,,,,,0,1
13,2,3,4,5,,,,,,,,,0,0
14,2,3,4,5,6,,,,,,,,0,0
15,5,6,7,,,,,,,,,,0,1
16,5,6,7,8,,,,,,,,,0,2
17,3,4,5,6,7,,,,,,,,0,0
18,3,4,5,6,7,,,,,,,,0,0
19,,,,,,,,,,,,,0,1
20,3,4,5,6,7,8,,,,,,,0,0
21,3,4,5,6,7,8,,,,,,,0,0
22,,,,,,,,,,,,,0,1
23,4,5,6,7,8,,,,,,,,0,0
24,4,5,6,7,8,9,,,,,,,0,0
25,,,,,,,,,,,,,0,1
26,4,5,6,7,8,9,,,,,,,0,0
27,4,5,6,7,8,9,10,,,,,,0,0
28,,,,,,,,,,,,,0,1
29,5,6,7,8,9,10,,,,,,,0,0
30,5,6,7,8,9,10,11,,,,,,0,0
31,,,,,,,,,,,,,0,1
32,,,,,,,,,,,,,0,2