%YAML 1.1
%TAG !u! tag:unity3d.com,2011:
--- !u!162 &1
EditorUserSettings:
  m_ObjectHideFlags: 0
  serializedVersion: 4
  m_ConfigSettings:
    RecentlyUsedScenePath-0:
      value: 224247031146467922362312380c7d3935582825203130353f3a1873d1eb3d3df1a811ece93f2d3d2d0dfd73233b0f3ae00b1d04e4451f05181ae4
      flags: 0
    RecentlyUsedScenePath-1:
      value: 224247031146467922362312380c7d3935582825203130353f3a1873d1eb3d3df1a812ecea3570183c0fe0721130082beb
      flags: 0
    RecentlyUsedScenePath-2:
      value: 224247031146467e1f0c2b231d267e0202584b0e6c042723283b0e73d2e13733adc333e4e87a2c3f3c0cea7c083f123ae019462ff306054b1d0fee0b03ec5e061fcc0cdc
      flags: 0
    RecentlyUsedScenePath-3:
      value: 22424703114646730218006223374a141f18571e232728701d3b1239e7e32031eee225a9b5751b39340daf2f073b0f3abd3e0604f84b1a191e04f80d05f61c1602854a8b0fc61608d2
      flags: 0
    RecentlyUsedScenePath-4:
      value: 2242470311464676142f1f3115374c5f25141d24293b69043f280e3bd1e33136e7a923e7ee2e26
      flags: 0
    RecentlyUsedScenePath-5:
      value: 2242470311464676142f1f3115374c5f25141d24293b69362f051234ebee7a2decee22f0
      flags: 0
    RecentlyUsedScenePath-6:
      value: 224247031146467d0c0d09201f2c5423323c570f34292b20212c0e7cc3e3373df1f402e6ec3f31113c0cfa721130082beb
      flags: 0
    RecentlyUsedScenePath-7:
      value: 224247031146467d0c0d09201f2c5423323c570f34292b20212c0e7ccfe13d36cfe238fca92f31352d1b
      flags: 0
    RecentlyUsedScenePath-8:
      value: 2242470311464676142f1f3115374c5f25141d24293b691d2c20137df7ee3d2cfb
      flags: 0
    RecentlyUsedScenePath-9:
      value: 2242470311464676142f1f3115374c5f25141d24293b691c2228193aece77a2decee22f0
      flags: 0
    vcSharedLogLevel:
      value: 0d5e400f0650
      flags: 0
  m_VCAutomaticAdd: 1
  m_VCDebugCom: 0
  m_VCDebugCmd: 0
  m_VCDebugOut: 0
  m_SemanticMergeMode: 2
  m_VCShowFailedCheckout: 1
  m_VCOverwriteFailedCheckoutAssets: 1
  m_VCProjectOverlayIcons: 1
  m_VCHierarchyOverlayIcons: 1
  m_VCOtherOverlayIcons: 1
  m_VCAllowAsyncUpdate: 1
