%YAML 1.1
%TAG !u! tag:unity3d.com,2011:
--- !u!21 &2100000
Material:
  serializedVersion: 6
  m_ObjectHideFlags: 0
  m_CorrespondingSourceObject: {fileID: 0}
  m_PrefabInstance: {fileID: 0}
  m_PrefabAsset: {fileID: 0}
  m_Name: X
  m_Shader: {fileID: 4800000, guid: 6fc9318f5193c094c98c0d450cd61e3b, type: 3}
  m_ShaderKeywords: _BACKGROUNDMODE_COLORS _ENABLECLOUDSROTATION_ON _ENABLECLOUDS_ON
    _ENABLEPATTERNOVERLAY_ON _ENABLESUN_ON
  m_LightmapFlags: 4
  m_EnableInstancingVariants: 0
  m_DoubleSidedGI: 0
  m_CustomRenderQueue: -1
  stringTagMap: {}
  disabledShaderPasses: []
  m_SavedProperties:
    serializedVersion: 3
    m_TexEnvs:
    - _BackgroundCubemap:
        m_Texture: {fileID: 0}
        m_Scale: {x: 1, y: 1}
        m_Offset: {x: 0, y: 0}
    - _BumpMap:
        m_Texture: {fileID: 0}
        m_Scale: {x: 1, y: 1}
        m_Offset: {x: 0, y: 0}
    - _CloudsCubemap:
        m_Texture: {fileID: 8900000, guid: 023872850b03c4f469cf2ed17cd8b705, type: 3}
        m_Scale: {x: 1, y: 1}
        m_Offset: {x: 0, y: 0}
    - _DetailAlbedoMap:
        m_Texture: {fileID: 0}
        m_Scale: {x: 1, y: 1}
        m_Offset: {x: 0, y: 0}
    - _DetailMask:
        m_Texture: {fileID: 0}
        m_Scale: {x: 1, y: 1}
        m_Offset: {x: 0, y: 0}
    - _DetailNormalMap:
        m_Texture: {fileID: 0}
        m_Scale: {x: 1, y: 1}
        m_Offset: {x: 0, y: 0}
    - _EmissionMap:
        m_Texture: {fileID: 0}
        m_Scale: {x: 1, y: 1}
        m_Offset: {x: 0, y: 0}
    - _MainTex:
        m_Texture: {fileID: 0}
        m_Scale: {x: 1, y: 1}
        m_Offset: {x: 0, y: 0}
    - _MetallicGlossMap:
        m_Texture: {fileID: 0}
        m_Scale: {x: 1, y: 1}
        m_Offset: {x: 0, y: 0}
    - _MoonTexture:
        m_Texture: {fileID: 0}
        m_Scale: {x: 1, y: 1}
        m_Offset: {x: 0, y: 0}
    - _OcclusionMap:
        m_Texture: {fileID: 0}
        m_Scale: {x: 1, y: 1}
        m_Offset: {x: 0, y: 0}
    - _ParallaxMap:
        m_Texture: {fileID: 0}
        m_Scale: {x: 1, y: 1}
        m_Offset: {x: 0, y: 0}
    - _PatternCubemap:
        m_Texture: {fileID: 8900000, guid: 2496987be02f21244bcd1e6c3bfa5aff, type: 3}
        m_Scale: {x: 1, y: 1}
        m_Offset: {x: 0, y: 0}
    - _StarsCubemap:
        m_Texture: {fileID: 8900000, guid: 2410ceb2200b01a4cad9ef3c253b8a5a, type: 3}
        m_Scale: {x: 1, y: 1}
        m_Offset: {x: 0, y: 0}
    - _SunTexture:
        m_Texture: {fileID: 2800000, guid: dd566660fc358aa4098080e42ca0db56, type: 3}
        m_Scale: {x: 1, y: 1}
        m_Offset: {x: 0, y: 0}
    - _TwinklingTexture:
        m_Texture: {fileID: 0}
        m_Scale: {x: 1, y: 1}
        m_Offset: {x: 0, y: 0}
    m_Floats:
    - _BackgroundCat: 1
    - _BackgroundExposure: 1
    - _BackgroundMode: 0
    - _Banner: 1
    - _BumpScale: 1
    - _CloudsCat: 1
    - _CloudsHeight: 0
    - _CloudsIntensity: 1
    - _CloudsLitbySun: 0
    - _CloudsRotation: 360
    - _CloudsRotationSpeed: 1
    - _Cutoff: 0.5
    - _DetailNormalMapScale: 1
    - _DstBlend: 0
    - _EnableBuiltinFog: 0
    - _EnableClouds: 1
    - _EnableCloudsRotation: 1
    - _EnableFogMessage: 0
    - _EnableMoon: 0
    - _EnablePatternOverlay: 1
    - _EnableStars: 0
    - _EnableStarsRotation: 0
    - _EnableStarsTwinkling: 0
    - _EnableSun: 1
    - _EquatorHeight: 0.5
    - _EquatorSmoothness: 0.5
    - _FogCat: 1
    - _FogFill: 0.34
    - _FogHeight: 0.299
    - _FogSmoothness: 0.01
    - _GlossMapScale: 1
    - _Glossiness: 0.5
    - _GlossyReflections: 1
    - _Metallic: 0
    - _Mode: 0
    - _MoonCat: 1
    - _MoonIntensity: 1
    - _MoonSize: 0.5
    - _OcclusionStrength: 1
    - _Parallax: 0.02
    - _PatternCat: 1
    - _PatternContrast: 1
    - _SkyboxCat: 1
    - _SkyboxRotation: 1
    - _SmoothnessTextureChannel: 0
    - _SpecularHighlights: 1
    - _SrcBlend: 1
    - _StarsBottomMask: 1
    - _StarsCat: 1
    - _StarsHeightMask: 0
    - _StarsIntensity: 2
    - _StarsLayer: 2
    - _StarsRotation: 360
    - _StarsRotationSpeed: 0.5
    - _StarsSize: 0.383
    - _StarsSunMask: 0
    - _SunCat: 1
    - _SunIntensity: 1
    - _SunSize: 0.5
    - _TwinklingContrast: 1
    - _TwinklingSpeed: 0.05
    - _UVSec: 0
    - _ZWrite: 1
    m_Colors:
    - _CloudsLightColor: {r: 1, g: 1, b: 1, a: 1}
    - _CloudsShadowColor: {r: 0.4980392, g: 0.7450981, b: 1, a: 1}
    - _Color: {r: 1, g: 1, b: 1, a: 1}
    - _EmissionColor: {r: 0, g: 0, b: 0, a: 1}
    - _EquatorColor: {r: 1, g: 0.5091263, b: 0, a: 1}
    - _GroundColor: {r: 1, g: 0.79510856, b: 0, a: 1}
    - _MoonColor: {r: 1, g: 1, b: 1, a: 1}
    - _SkyColor: {r: 0.9339623, g: 0.2801511, b: 0, a: 1}
    - _SkyboxRotationAxis: {r: 0, g: 1, b: 0, a: 0}
    - _SkyboxRotationAxix: {r: 0, g: 1, b: 0, a: 0}
    - _StarsRotationAxis: {r: 0, g: 1, b: 0, a: 0}
    - _SunColor: {r: 1, g: 1, b: 1, a: 1}
  m_BuildTextureStacks: []
