%YAML 1.1
%TAG !u! tag:unity3d.com,2011:
--- !u!1 &369714037927308444
GameObject:
  m_ObjectHideFlags: 0
  m_CorrespondingSourceObject: {fileID: 0}
  m_PrefabInstance: {fileID: 0}
  m_PrefabAsset: {fileID: 0}
  serializedVersion: 6
  m_Component:
  - component: {fileID: 3194174041935630664}
  m_Layer: 0
  m_Name: Bone.001
  m_TagString: Untagged
  m_Icon: {fileID: 0}
  m_NavMeshLayer: 0
  m_StaticEditorFlags: 0
  m_IsActive: 1
--- !u!4 &3194174041935630664
Transform:
  m_ObjectHideFlags: 0
  m_CorrespondingSourceObject: {fileID: 0}
  m_PrefabInstance: {fileID: 0}
  m_PrefabAsset: {fileID: 0}
  m_GameObject: {fileID: 369714037927308444}
  m_LocalRotation: {x: -0.027840732, y: 0.003435911, z: -0.021269998, w: 0.9993802}
  m_LocalPosition: {x: 0.0006895305, y: 0.0022468516, z: 0.000027467608}
  m_LocalScale: {x: 0.99999994, y: 0.99999994, z: 0.99999994}
  m_Children:
  - {fileID: 248884398746580763}
  m_Father: {fileID: 2316685747762502304}
  m_RootOrder: 1
  m_LocalEulerAnglesHint: {x: 0, y: 0, z: 0}
--- !u!1 &671607903078423341
GameObject:
  m_ObjectHideFlags: 0
  m_CorrespondingSourceObject: {fileID: 0}
  m_PrefabInstance: {fileID: 0}
  m_PrefabAsset: {fileID: 0}
  serializedVersion: 6
  m_Component:
  - component: {fileID: 2316685747762502304}
  m_Layer: 0
  m_Name: Bone.020
  m_TagString: Untagged
  m_Icon: {fileID: 0}
  m_NavMeshLayer: 0
  m_StaticEditorFlags: 0
  m_IsActive: 1
--- !u!4 &2316685747762502304
Transform:
  m_ObjectHideFlags: 0
  m_CorrespondingSourceObject: {fileID: 0}
  m_PrefabInstance: {fileID: 0}
  m_PrefabAsset: {fileID: 0}
  m_GameObject: {fileID: 671607903078423341}
  m_LocalRotation: {x: -0.10402493, y: -0.013964358, z: -0.057129275, w: 0.9928344}
  m_LocalPosition: {x: -1.8626451e-11, y: 0.0064181243, z: 1.4901161e-10}
  m_LocalScale: {x: 0.99999994, y: 0.99999994, z: 1}
  m_Children:
  - {fileID: 7112246520700128312}
  - {fileID: 3194174041935630664}
  - {fileID: 8277202286251657036}
  - {fileID: 6283957906698119560}
  - {fileID: 2410812346701053657}
  - {fileID: 1709724717604416500}
  m_Father: {fileID: 1315130150495063202}
  m_RootOrder: 0
  m_LocalEulerAnglesHint: {x: 0, y: 0, z: 0}
--- !u!1 &789482482104555347
GameObject:
  m_ObjectHideFlags: 0
  m_CorrespondingSourceObject: {fileID: 0}
  m_PrefabInstance: {fileID: 0}
  m_PrefabAsset: {fileID: 0}
  serializedVersion: 6
  m_Component:
  - component: {fileID: 1709724717604416500}
  m_Layer: 0
  m_Name: Bone.017
  m_TagString: Untagged
  m_Icon: {fileID: 0}
  m_NavMeshLayer: 0
  m_StaticEditorFlags: 0
  m_IsActive: 1
--- !u!4 &1709724717604416500
Transform:
  m_ObjectHideFlags: 0
  m_CorrespondingSourceObject: {fileID: 0}
  m_PrefabInstance: {fileID: 0}
  m_PrefabAsset: {fileID: 0}
  m_GameObject: {fileID: 789482482104555347}
  m_LocalRotation: {x: -0.32330588, y: 0.13770056, z: -0.28691226, w: 0.8911752}
  m_LocalPosition: {x: 0.0016831992, y: 0.0016004121, z: -0.00011903755}
  m_LocalScale: {x: 0.9999999, y: 1, z: 0.99999994}
  m_Children:
  - {fileID: 4117165231536739651}
  m_Father: {fileID: 2316685747762502304}
  m_RootOrder: 5
  m_LocalEulerAnglesHint: {x: 0, y: 0, z: 0}
--- !u!1 &926384375514743391
GameObject:
  m_ObjectHideFlags: 0
  m_CorrespondingSourceObject: {fileID: 0}
  m_PrefabInstance: {fileID: 0}
  m_PrefabAsset: {fileID: 0}
  serializedVersion: 6
  m_Component:
  - component: {fileID: 7059053822974770137}
  m_Layer: 0
  m_Name: Bone.019_end
  m_TagString: Untagged
  m_Icon: {fileID: 0}
  m_NavMeshLayer: 0
  m_StaticEditorFlags: 0
  m_IsActive: 1
--- !u!4 &7059053822974770137
Transform:
  m_ObjectHideFlags: 0
  m_CorrespondingSourceObject: {fileID: 0}
  m_PrefabInstance: {fileID: 0}
  m_PrefabAsset: {fileID: 0}
  m_GameObject: {fileID: 926384375514743391}
  m_LocalRotation: {x: 0, y: -0, z: -0, w: 1}
  m_LocalPosition: {x: -0, y: 0.0005773477, z: 0}
  m_LocalScale: {x: 1, y: 1, z: 1}
  m_Children: []
  m_Father: {fileID: 4726045908299250958}
  m_RootOrder: 0
  m_LocalEulerAnglesHint: {x: 0, y: 0, z: 0}
--- !u!1 &1453879967465339604
GameObject:
  m_ObjectHideFlags: 0
  m_CorrespondingSourceObject: {fileID: 0}
  m_PrefabInstance: {fileID: 0}
  m_PrefabAsset: {fileID: 0}
  serializedVersion: 6
  m_Component:
  - component: {fileID: 3704922115971770387}
  m_Layer: 0
  m_Name: Bone.016_end
  m_TagString: Untagged
  m_Icon: {fileID: 0}
  m_NavMeshLayer: 0
  m_StaticEditorFlags: 0
  m_IsActive: 1
--- !u!4 &3704922115971770387
Transform:
  m_ObjectHideFlags: 0
  m_CorrespondingSourceObject: {fileID: 0}
  m_PrefabInstance: {fileID: 0}
  m_PrefabAsset: {fileID: 0}
  m_GameObject: {fileID: 1453879967465339604}
  m_LocalRotation: {x: 0, y: -0, z: -0, w: 1}
  m_LocalPosition: {x: -0, y: 0.00021204632, z: 0}
  m_LocalScale: {x: 1, y: 1, z: 1}
  m_Children: []
  m_Father: {fileID: 1161315874201991986}
  m_RootOrder: 0
  m_LocalEulerAnglesHint: {x: 0, y: 0, z: 0}
--- !u!1 &1642686441923958046
GameObject:
  m_ObjectHideFlags: 0
  m_CorrespondingSourceObject: {fileID: 0}
  m_PrefabInstance: {fileID: 0}
  m_PrefabAsset: {fileID: 0}
  serializedVersion: 6
  m_Component:
  - component: {fileID: 1315130150495063202}
  m_Layer: 0
  m_Name: Bone
  m_TagString: Untagged
  m_Icon: {fileID: 0}
  m_NavMeshLayer: 0
  m_StaticEditorFlags: 0
  m_IsActive: 1
--- !u!4 &1315130150495063202
Transform:
  m_ObjectHideFlags: 0
  m_CorrespondingSourceObject: {fileID: 0}
  m_PrefabInstance: {fileID: 0}
  m_PrefabAsset: {fileID: 0}
  m_GameObject: {fileID: 1642686441923958046}
  m_LocalRotation: {x: 0.21985556, y: 0.85029656, z: 0.35253456, w: -0.32307696}
  m_LocalPosition: {x: 0.00018872251, y: 0, z: 0.00032082826}
  m_LocalScale: {x: 1, y: 0.99999994, z: 1}
  m_Children:
  - {fileID: 2316685747762502304}
  m_Father: {fileID: 3613071234370056142}
  m_RootOrder: 0
  m_LocalEulerAnglesHint: {x: 0, y: 0, z: 0}
--- !u!1 &1995066799090641615
GameObject:
  m_ObjectHideFlags: 0
  m_CorrespondingSourceObject: {fileID: 0}
  m_PrefabInstance: {fileID: 0}
  m_PrefabAsset: {fileID: 0}
  serializedVersion: 6
  m_Component:
  - component: {fileID: 3428818409588826108}
  m_Layer: 0
  m_Name: Bone.004
  m_TagString: Untagged
  m_Icon: {fileID: 0}
  m_NavMeshLayer: 0
  m_StaticEditorFlags: 0
  m_IsActive: 1
--- !u!4 &3428818409588826108
Transform:
  m_ObjectHideFlags: 0
  m_CorrespondingSourceObject: {fileID: 0}
  m_PrefabInstance: {fileID: 0}
  m_PrefabAsset: {fileID: 0}
  m_GameObject: {fileID: 1995066799090641615}
  m_LocalRotation: {x: -0.010690293, y: -0.00008536719, z: -0.0012154926, w: 0.9999421}
  m_LocalPosition: {x: 2.4214386e-10, y: 0.000577456, z: 2.9802322e-10}
  m_LocalScale: {x: 1, y: 1, z: 1}
  m_Children:
  - {fileID: 4414575661646574337}
  m_Father: {fileID: 2129880481095840120}
  m_RootOrder: 0
  m_LocalEulerAnglesHint: {x: 0, y: 0, z: 0}
--- !u!1 &2042700748972637894
GameObject:
  m_ObjectHideFlags: 0
  m_CorrespondingSourceObject: {fileID: 0}
  m_PrefabInstance: {fileID: 0}
  m_PrefabAsset: {fileID: 0}
  serializedVersion: 6
  m_Component:
  - component: {fileID: 2410812346701053657}
  m_Layer: 0
  m_Name: Bone.013
  m_TagString: Untagged
  m_Icon: {fileID: 0}
  m_NavMeshLayer: 0
  m_StaticEditorFlags: 0
  m_IsActive: 1
--- !u!4 &2410812346701053657
Transform:
  m_ObjectHideFlags: 0
  m_CorrespondingSourceObject: {fileID: 0}
  m_PrefabInstance: {fileID: 0}
  m_PrefabAsset: {fileID: 0}
  m_GameObject: {fileID: 2042700748972637894}
  m_LocalRotation: {x: 0.024128944, y: -0.0022401977, z: 0.087359026, w: 0.99588215}
  m_LocalPosition: {x: -0.00094292476, y: 0.0020538499, z: -0.00005275987}
  m_LocalScale: {x: 0.9999999, y: 0.99999994, z: 0.99999994}
  m_Children:
  - {fileID: 6067493011813725445}
  m_Father: {fileID: 2316685747762502304}
  m_RootOrder: 4
  m_LocalEulerAnglesHint: {x: 0, y: 0, z: 0}
--- !u!1 &2423355296353953363
GameObject:
  m_ObjectHideFlags: 0
  m_CorrespondingSourceObject: {fileID: 0}
  m_PrefabInstance: {fileID: 0}
  m_PrefabAsset: {fileID: 0}
  serializedVersion: 6
  m_Component:
  - component: {fileID: 6923144801878266758}
  - component: {fileID: 7633177401792838047}
  m_Layer: 0
  m_Name: tay.001
  m_TagString: Untagged
  m_Icon: {fileID: 0}
  m_NavMeshLayer: 0
  m_StaticEditorFlags: 0
  m_IsActive: 1
--- !u!4 &6923144801878266758
Transform:
  m_ObjectHideFlags: 0
  m_CorrespondingSourceObject: {fileID: 0}
  m_PrefabInstance: {fileID: 0}
  m_PrefabAsset: {fileID: 0}
  m_GameObject: {fileID: 2423355296353953363}
  m_LocalRotation: {x: 0, y: -0, z: -0, w: 1}
  m_LocalPosition: {x: -0, y: 0, z: 0}
  m_LocalScale: {x: 1, y: 1, z: 1}
  m_Children: []
  m_Father: {fileID: 5662397437082664784}
  m_RootOrder: 1
  m_LocalEulerAnglesHint: {x: 0, y: 0, z: 0}
--- !u!137 &7633177401792838047
SkinnedMeshRenderer:
  m_ObjectHideFlags: 0
  m_CorrespondingSourceObject: {fileID: 0}
  m_PrefabInstance: {fileID: 0}
  m_PrefabAsset: {fileID: 0}
  m_GameObject: {fileID: 2423355296353953363}
  m_Enabled: 1
  m_CastShadows: 1
  m_ReceiveShadows: 1
  m_DynamicOccludee: 1
  m_MotionVectors: 1
  m_LightProbeUsage: 1
  m_ReflectionProbeUsage: 1
  m_RayTracingMode: 3
  m_RayTraceProcedural: 0
  m_RenderingLayerMask: 1
  m_RendererPriority: 0
  m_Materials:
  - {fileID: 2100000, guid: 43250d42f77d7f646bac9ebe07907114, type: 2}
  m_StaticBatchInfo:
    firstSubMesh: 0
    subMeshCount: 0
  m_StaticBatchRoot: {fileID: 0}
  m_ProbeAnchor: {fileID: 0}
  m_LightProbeVolumeOverride: {fileID: 0}
  m_ScaleInLightmap: 1
  m_ReceiveGI: 1
  m_PreserveUVs: 0
  m_IgnoreNormalsForChartDetection: 0
  m_ImportantGI: 0
  m_StitchLightmapSeams: 1
  m_SelectedEditorRenderState: 3
  m_MinimumChartSize: 4
  m_AutoUVMaxDistance: 0.5
  m_AutoUVMaxAngle: 89
  m_LightmapParameters: {fileID: 0}
  m_SortingLayerID: 0
  m_SortingLayer: 0
  m_SortingOrder: 0
  serializedVersion: 2
  m_Quality: 0
  m_UpdateWhenOffscreen: 0
  m_SkinnedMotionVectors: 1
  m_Mesh: {fileID: -3802110345109548064, guid: 52ec1403fd967db448e641e1d07dfbdb, type: 3}
  m_Bones:
  - {fileID: 1315130150495063202}
  - {fileID: 2316685747762502304}
  - {fileID: 3194174041935630664}
  - {fileID: 248884398746580763}
  - {fileID: 2129880481095840120}
  - {fileID: 3428818409588826108}
  - {fileID: 8277202286251657036}
  - {fileID: 8808241583194818969}
  - {fileID: 5671829863676059075}
  - {fileID: 2006226117371375976}
  - {fileID: 6283957906698119560}
  - {fileID: 9097277304923438437}
  - {fileID: 8280455650582242259}
  - {fileID: 3946740970665331575}
  - {fileID: 2410812346701053657}
  - {fileID: 6067493011813725445}
  - {fileID: 7782290825369046282}
  - {fileID: 1161315874201991986}
  - {fileID: 1709724717604416500}
  - {fileID: 4117165231536739651}
  - {fileID: 4726045908299250958}
  m_BlendShapeWeights: []
  m_RootBone: {fileID: 1315130150495063202}
  m_AABB:
    m_Center: {x: 0.0012924192, y: 0.0055739405, z: -0.00039778952}
    m_Extent: {x: 0.002812415, y: 0.0059185736, z: 0.002475068}
  m_DirtyAABB: 0
--- !u!1 &2860676950104424359
GameObject:
  m_ObjectHideFlags: 0
  m_CorrespondingSourceObject: {fileID: 0}
  m_PrefabInstance: {fileID: 0}
  m_PrefabAsset: {fileID: 0}
  serializedVersion: 6
  m_Component:
  - component: {fileID: 7782290825369046282}
  m_Layer: 0
  m_Name: Bone.015
  m_TagString: Untagged
  m_Icon: {fileID: 0}
  m_NavMeshLayer: 0
  m_StaticEditorFlags: 0
  m_IsActive: 1
--- !u!4 &7782290825369046282
Transform:
  m_ObjectHideFlags: 0
  m_CorrespondingSourceObject: {fileID: 0}
  m_PrefabInstance: {fileID: 0}
  m_PrefabAsset: {fileID: 0}
  m_GameObject: {fileID: 2860676950104424359}
  m_LocalRotation: {x: -0.018740147, y: 0.00073038694, z: -0.0052628755, w: 0.9998103}
  m_LocalPosition: {x: 2.2351741e-10, y: 0.00054712326, z: 5.2154064e-10}
  m_LocalScale: {x: 0.99999994, y: 0.9999998, z: 0.99999994}
  m_Children:
  - {fileID: 1161315874201991986}
  m_Father: {fileID: 6067493011813725445}
  m_RootOrder: 0
  m_LocalEulerAnglesHint: {x: 0, y: 0, z: 0}
--- !u!1 &2935220471575635332
GameObject:
  m_ObjectHideFlags: 0
  m_CorrespondingSourceObject: {fileID: 0}
  m_PrefabInstance: {fileID: 0}
  m_PrefabAsset: {fileID: 0}
  serializedVersion: 6
  m_Component:
  - component: {fileID: 3613071234370056142}
  m_Layer: 0
  m_Name: Armature
  m_TagString: Untagged
  m_Icon: {fileID: 0}
  m_NavMeshLayer: 0
  m_StaticEditorFlags: 0
  m_IsActive: 1
--- !u!4 &3613071234370056142
Transform:
  m_ObjectHideFlags: 0
  m_CorrespondingSourceObject: {fileID: 0}
  m_PrefabInstance: {fileID: 0}
  m_PrefabAsset: {fileID: 0}
  m_GameObject: {fileID: 2935220471575635332}
  m_LocalRotation: {x: -0.7071068, y: 0, z: -0, w: 0.7071067}
  m_LocalPosition: {x: -0, y: 0, z: 0}
  m_LocalScale: {x: 100, y: 100, z: 100}
  m_Children:
  - {fileID: 1315130150495063202}
  m_Father: {fileID: 5662397437082664784}
  m_RootOrder: 0
  m_LocalEulerAnglesHint: {x: 0, y: 0, z: 0}
--- !u!1 &2961888315370739242
GameObject:
  m_ObjectHideFlags: 0
  m_CorrespondingSourceObject: {fileID: 0}
  m_PrefabInstance: {fileID: 0}
  m_PrefabAsset: {fileID: 0}
  serializedVersion: 6
  m_Component:
  - component: {fileID: 248884398746580763}
  m_Layer: 0
  m_Name: Bone.002
  m_TagString: Untagged
  m_Icon: {fileID: 0}
  m_NavMeshLayer: 0
  m_StaticEditorFlags: 0
  m_IsActive: 1
--- !u!4 &248884398746580763
Transform:
  m_ObjectHideFlags: 0
  m_CorrespondingSourceObject: {fileID: 0}
  m_PrefabInstance: {fileID: 0}
  m_PrefabAsset: {fileID: 0}
  m_GameObject: {fileID: 2961888315370739242}
  m_LocalRotation: {x: -0.007926241, y: 0.0028293931, z: -0.040058833, w: 0.9991619}
  m_LocalPosition: {x: 3.72529e-10, y: 0.0003180021, z: 3.72529e-10}
  m_LocalScale: {x: 1.0000001, y: 1, z: 1}
  m_Children:
  - {fileID: 2129880481095840120}
  m_Father: {fileID: 3194174041935630664}
  m_RootOrder: 0
  m_LocalEulerAnglesHint: {x: 0, y: 0, z: 0}
--- !u!1 &3369086984466651178
GameObject:
  m_ObjectHideFlags: 0
  m_CorrespondingSourceObject: {fileID: 0}
  m_PrefabInstance: {fileID: 0}
  m_PrefabAsset: {fileID: 0}
  serializedVersion: 6
  m_Component:
  - component: {fileID: 6283957906698119560}
  m_Layer: 0
  m_Name: Bone.009
  m_TagString: Untagged
  m_Icon: {fileID: 0}
  m_NavMeshLayer: 0
  m_StaticEditorFlags: 0
  m_IsActive: 1
--- !u!4 &6283957906698119560
Transform:
  m_ObjectHideFlags: 0
  m_CorrespondingSourceObject: {fileID: 0}
  m_PrefabInstance: {fileID: 0}
  m_PrefabAsset: {fileID: 0}
  m_GameObject: {fileID: 3369086984466651178}
  m_LocalRotation: {x: -0.096426174, y: -0.0091428235, z: 0.08476758, w: 0.9916819}
  m_LocalPosition: {x: -0.00044478243, y: 0.0021636277, z: 0.000051384344}
  m_LocalScale: {x: 1, y: 1, z: 1}
  m_Children:
  - {fileID: 9097277304923438437}
  m_Father: {fileID: 2316685747762502304}
  m_RootOrder: 3
  m_LocalEulerAnglesHint: {x: 0, y: 0, z: 0}
--- !u!1 &3773605648052449624
GameObject:
  m_ObjectHideFlags: 0
  m_CorrespondingSourceObject: {fileID: 0}
  m_PrefabInstance: {fileID: 0}
  m_PrefabAsset: {fileID: 0}
  serializedVersion: 6
  m_Component:
  - component: {fileID: 8209176809954371738}
  m_Layer: 0
  m_Name: Bone.012_end
  m_TagString: Untagged
  m_Icon: {fileID: 0}
  m_NavMeshLayer: 0
  m_StaticEditorFlags: 0
  m_IsActive: 1
--- !u!4 &8209176809954371738
Transform:
  m_ObjectHideFlags: 0
  m_CorrespondingSourceObject: {fileID: 0}
  m_PrefabInstance: {fileID: 0}
  m_PrefabAsset: {fileID: 0}
  m_GameObject: {fileID: 3773605648052449624}
  m_LocalRotation: {x: 0, y: -0, z: -0, w: 1}
  m_LocalPosition: {x: -0, y: 0.00030249628, z: 0}
  m_LocalScale: {x: 1, y: 1, z: 1}
  m_Children: []
  m_Father: {fileID: 3946740970665331575}
  m_RootOrder: 0
  m_LocalEulerAnglesHint: {x: 0, y: 0, z: 0}
--- !u!1 &3849344063206442867
GameObject:
  m_ObjectHideFlags: 0
  m_CorrespondingSourceObject: {fileID: 0}
  m_PrefabInstance: {fileID: 0}
  m_PrefabAsset: {fileID: 0}
  serializedVersion: 6
  m_Component:
  - component: {fileID: 8808241583194818969}
  m_Layer: 0
  m_Name: Bone.006
  m_TagString: Untagged
  m_Icon: {fileID: 0}
  m_NavMeshLayer: 0
  m_StaticEditorFlags: 0
  m_IsActive: 1
--- !u!4 &8808241583194818969
Transform:
  m_ObjectHideFlags: 0
  m_CorrespondingSourceObject: {fileID: 0}
  m_PrefabInstance: {fileID: 0}
  m_PrefabAsset: {fileID: 0}
  m_GameObject: {fileID: 3849344063206442867}
  m_LocalRotation: {x: -0.018242583, y: 0.00033169723, z: -0.032815814, w: 0.9992949}
  m_LocalPosition: {x: -5.9604643e-10, y: 0.0003359419, z: 7.4505804e-11}
  m_LocalScale: {x: 0.99999994, y: 1, z: 0.99999994}
  m_Children:
  - {fileID: 5671829863676059075}
  m_Father: {fileID: 8277202286251657036}
  m_RootOrder: 0
  m_LocalEulerAnglesHint: {x: 0, y: 0, z: 0}
--- !u!1 &4218904311719786438
GameObject:
  m_ObjectHideFlags: 0
  m_CorrespondingSourceObject: {fileID: 0}
  m_PrefabInstance: {fileID: 0}
  m_PrefabAsset: {fileID: 0}
  serializedVersion: 6
  m_Component:
  - component: {fileID: 4726045908299250958}
  m_Layer: 0
  m_Name: Bone.019
  m_TagString: Untagged
  m_Icon: {fileID: 0}
  m_NavMeshLayer: 0
  m_StaticEditorFlags: 0
  m_IsActive: 1
--- !u!4 &4726045908299250958
Transform:
  m_ObjectHideFlags: 0
  m_CorrespondingSourceObject: {fileID: 0}
  m_PrefabInstance: {fileID: 0}
  m_PrefabAsset: {fileID: 0}
  m_GameObject: {fileID: 4218904311719786438}
  m_LocalRotation: {x: 0.08320151, y: -0.056278866, z: 0.102813385, w: 0.9896159}
  m_LocalPosition: {x: 2.2351741e-10, y: 0.0005368562, z: -1.11758706e-10}
  m_LocalScale: {x: 0.99999994, y: 1.0000001, z: 1}
  m_Children:
  - {fileID: 7059053822974770137}
  m_Father: {fileID: 4117165231536739651}
  m_RootOrder: 0
  m_LocalEulerAnglesHint: {x: 0, y: 0, z: 0}
--- !u!1 &4304503319740576493
GameObject:
  m_ObjectHideFlags: 0
  m_CorrespondingSourceObject: {fileID: 0}
  m_PrefabInstance: {fileID: 0}
  m_PrefabAsset: {fileID: 0}
  serializedVersion: 6
  m_Component:
  - component: {fileID: 8280455650582242259}
  m_Layer: 0
  m_Name: Bone.011
  m_TagString: Untagged
  m_Icon: {fileID: 0}
  m_NavMeshLayer: 0
  m_StaticEditorFlags: 0
  m_IsActive: 1
--- !u!4 &8280455650582242259
Transform:
  m_ObjectHideFlags: 0
  m_CorrespondingSourceObject: {fileID: 0}
  m_PrefabInstance: {fileID: 0}
  m_PrefabAsset: {fileID: 0}
  m_GameObject: {fileID: 4304503319740576493}
  m_LocalRotation: {x: -0.012239057, y: -0.0015907272, z: -0.0037827159, w: 0.9999167}
  m_LocalPosition: {x: 6.3329936e-10, y: 0.0007457265, z: -2.9802322e-10}
  m_LocalScale: {x: 1, y: 0.99999994, z: 1}
  m_Children:
  - {fileID: 3946740970665331575}
  m_Father: {fileID: 9097277304923438437}
  m_RootOrder: 0
  m_LocalEulerAnglesHint: {x: 0, y: 0, z: 0}
--- !u!1 &5034796627673785834
GameObject:
  m_ObjectHideFlags: 0
  m_CorrespondingSourceObject: {fileID: 0}
  m_PrefabInstance: {fileID: 0}
  m_PrefabAsset: {fileID: 0}
  serializedVersion: 6
  m_Component:
  - component: {fileID: 5662397437082664784}
  - component: {fileID: 5034796627673785828}
  - component: {fileID: 5034796627673785835}
  m_Layer: 0
  m_Name: HandBoxing
  m_TagString: Untagged
  m_Icon: {fileID: 0}
  m_NavMeshLayer: 0
  m_StaticEditorFlags: 0
  m_IsActive: 1
--- !u!4 &5662397437082664784
Transform:
  m_ObjectHideFlags: 0
  m_CorrespondingSourceObject: {fileID: 0}
  m_PrefabInstance: {fileID: 0}
  m_PrefabAsset: {fileID: 0}
  m_GameObject: {fileID: 5034796627673785834}
  m_LocalRotation: {x: 0.13000077, y: -0.94756734, z: 0.13555025, w: 0.25853845}
  m_LocalPosition: {x: 0.685, y: -0.641, z: 0.846}
  m_LocalScale: {x: 1, y: 1, z: 1}
  m_Children:
  - {fileID: 3613071234370056142}
  - {fileID: 6923144801878266758}
  m_Father: {fileID: 0}
  m_RootOrder: 0
  m_LocalEulerAnglesHint: {x: 18.911, y: 208.729, z: -370.739}
--- !u!95 &5034796627673785828
Animator:
  serializedVersion: 3
  m_ObjectHideFlags: 0
  m_CorrespondingSourceObject: {fileID: 0}
  m_PrefabInstance: {fileID: 0}
  m_PrefabAsset: {fileID: 0}
  m_GameObject: {fileID: 5034796627673785834}
  m_Enabled: 1
  m_Avatar: {fileID: 0}
  m_Controller: {fileID: 9100000, guid: c4067adc7d3c04a448c7f61a5c5180b3, type: 2}
  m_CullingMode: 0
  m_UpdateMode: 2
  m_ApplyRootMotion: 0
  m_LinearVelocityBlending: 0
  m_WarningMessage: 
  m_HasTransformHierarchy: 1
  m_AllowConstantClipSamplingOptimization: 1
  m_KeepAnimatorControllerStateOnDisable: 0
--- !u!114 &5034796627673785835
MonoBehaviour:
  m_ObjectHideFlags: 0
  m_CorrespondingSourceObject: {fileID: 0}
  m_PrefabInstance: {fileID: 0}
  m_PrefabAsset: {fileID: 0}
  m_GameObject: {fileID: 5034796627673785834}
  m_Enabled: 1
  m_EditorHideFlags: 0
  m_Script: {fileID: 11500000, guid: 0f508cce4639b0249b76f7f4560a3268, type: 3}
  m_Name: 
  m_EditorClassIdentifier: 
  handType: 3
  handRenderer: {fileID: 7633177401792838047}
  player: {fileID: 0}
  monsterOnHand: {fileID: 0}
  newBall: {fileID: 0}
  monsterOnHandPrefab: {fileID: 327812659615480678, guid: 07df12fcd5c5bf84396e4ce325269471, type: 3}
  attackPos: {fileID: 7112246520700128312}
  handAnimator: {fileID: 5034796627673785828}
  clipIdle1: {fileID: 7400000, guid: 11dd41d216d13dc4d96d30b2a739ee5e, type: 2}
  clipHoldMons: {fileID: 7400000, guid: 15bc3cc239edb8c4aae46b01191cdb50, type: 2}
  clipLose: {fileID: 7400000, guid: feb600906f83c3e4ba9bdfa70c7f556c, type: 2}
  clipWin: {fileID: 7400000, guid: 130fda4c6f877b9419b67f21cb2d1fac, type: 2}
  clipCatch2: {fileID: 7400000, guid: ec930a8c3ab30de4ab4380ef78ca45ac, type: 2}
  clipCatch1: {fileID: 7400000, guid: 160dc3e7298e61b40959402c3b192dd6, type: 2}
  emptyBox: {fileID: 2322723490265246282}
  normalBox: {fileID: 2781598290504827477}
  vipBox: {fileID: 2519579122284723147}
--- !u!1 &5181459035067766675
GameObject:
  m_ObjectHideFlags: 0
  m_CorrespondingSourceObject: {fileID: 0}
  m_PrefabInstance: {fileID: 0}
  m_PrefabAsset: {fileID: 0}
  serializedVersion: 6
  m_Component:
  - component: {fileID: 1161315874201991986}
  m_Layer: 0
  m_Name: Bone.016
  m_TagString: Untagged
  m_Icon: {fileID: 0}
  m_NavMeshLayer: 0
  m_StaticEditorFlags: 0
  m_IsActive: 1
--- !u!4 &1161315874201991986
Transform:
  m_ObjectHideFlags: 0
  m_CorrespondingSourceObject: {fileID: 0}
  m_PrefabInstance: {fileID: 0}
  m_PrefabAsset: {fileID: 0}
  m_GameObject: {fileID: 5181459035067766675}
  m_LocalRotation: {x: 0.0008452046, y: 0.000834565, z: -0.005314087, w: 0.9999852}
  m_LocalPosition: {x: 2.2351741e-10, y: 0.0004151356, z: -7.4505804e-11}
  m_LocalScale: {x: 0.99999994, y: 1.0000001, z: 1}
  m_Children:
  - {fileID: 3704922115971770387}
  m_Father: {fileID: 7782290825369046282}
  m_RootOrder: 0
  m_LocalEulerAnglesHint: {x: 0, y: 0, z: 0}
--- !u!1 &5294117424060329783
GameObject:
  m_ObjectHideFlags: 0
  m_CorrespondingSourceObject: {fileID: 0}
  m_PrefabInstance: {fileID: 0}
  m_PrefabAsset: {fileID: 0}
  serializedVersion: 6
  m_Component:
  - component: {fileID: 6493356049766342895}
  m_Layer: 0
  m_Name: Bone.008_end
  m_TagString: Untagged
  m_Icon: {fileID: 0}
  m_NavMeshLayer: 0
  m_StaticEditorFlags: 0
  m_IsActive: 1
--- !u!4 &6493356049766342895
Transform:
  m_ObjectHideFlags: 0
  m_CorrespondingSourceObject: {fileID: 0}
  m_PrefabInstance: {fileID: 0}
  m_PrefabAsset: {fileID: 0}
  m_GameObject: {fileID: 5294117424060329783}
  m_LocalRotation: {x: 0, y: -0, z: -0, w: 1}
  m_LocalPosition: {x: -0, y: 0.00029002834, z: 0}
  m_LocalScale: {x: 1, y: 1, z: 1}
  m_Children: []
  m_Father: {fileID: 2006226117371375976}
  m_RootOrder: 0
  m_LocalEulerAnglesHint: {x: 0, y: 0, z: 0}
--- !u!1 &5354956294102092413
GameObject:
  m_ObjectHideFlags: 0
  m_CorrespondingSourceObject: {fileID: 0}
  m_PrefabInstance: {fileID: 0}
  m_PrefabAsset: {fileID: 0}
  serializedVersion: 6
  m_Component:
  - component: {fileID: 4117165231536739651}
  m_Layer: 0
  m_Name: Bone.018
  m_TagString: Untagged
  m_Icon: {fileID: 0}
  m_NavMeshLayer: 0
  m_StaticEditorFlags: 0
  m_IsActive: 1
--- !u!4 &4117165231536739651
Transform:
  m_ObjectHideFlags: 0
  m_CorrespondingSourceObject: {fileID: 0}
  m_PrefabInstance: {fileID: 0}
  m_PrefabAsset: {fileID: 0}
  m_GameObject: {fileID: 5354956294102092413}
  m_LocalRotation: {x: 0.07209384, y: -0.033380862, z: 0.2116877, w: 0.9741029}
  m_LocalPosition: {x: -2.2351741e-10, y: 0.00075872964, z: 1.4901161e-10}
  m_LocalScale: {x: 1, y: 1, z: 1.0000001}
  m_Children:
  - {fileID: 4726045908299250958}
  m_Father: {fileID: 1709724717604416500}
  m_RootOrder: 0
  m_LocalEulerAnglesHint: {x: 0, y: 0, z: 0}
--- !u!1 &6845906236346881233
GameObject:
  m_ObjectHideFlags: 0
  m_CorrespondingSourceObject: {fileID: 0}
  m_PrefabInstance: {fileID: 0}
  m_PrefabAsset: {fileID: 0}
  serializedVersion: 6
  m_Component:
  - component: {fileID: 9097277304923438437}
  m_Layer: 0
  m_Name: Bone.010
  m_TagString: Untagged
  m_Icon: {fileID: 0}
  m_NavMeshLayer: 0
  m_StaticEditorFlags: 0
  m_IsActive: 1
--- !u!4 &9097277304923438437
Transform:
  m_ObjectHideFlags: 0
  m_CorrespondingSourceObject: {fileID: 0}
  m_PrefabInstance: {fileID: 0}
  m_PrefabAsset: {fileID: 0}
  m_GameObject: {fileID: 6845906236346881233}
  m_LocalRotation: {x: 0.081415586, y: 0.0046690865, z: -0.043418866, w: 0.9957231}
  m_LocalPosition: {x: -3.352761e-10, y: 0.00033002748, z: -1.4901161e-10}
  m_LocalScale: {x: 1, y: 1, z: 0.99999994}
  m_Children:
  - {fileID: 8280455650582242259}
  m_Father: {fileID: 6283957906698119560}
  m_RootOrder: 0
  m_LocalEulerAnglesHint: {x: 0, y: 0, z: 0}
--- !u!1 &6934574263185039583
GameObject:
  m_ObjectHideFlags: 0
  m_CorrespondingSourceObject: {fileID: 0}
  m_PrefabInstance: {fileID: 0}
  m_PrefabAsset: {fileID: 0}
  serializedVersion: 6
  m_Component:
  - component: {fileID: 8277202286251657036}
  m_Layer: 0
  m_Name: Bone.005
  m_TagString: Untagged
  m_Icon: {fileID: 0}
  m_NavMeshLayer: 0
  m_StaticEditorFlags: 0
  m_IsActive: 1
--- !u!4 &8277202286251657036
Transform:
  m_ObjectHideFlags: 0
  m_CorrespondingSourceObject: {fileID: 0}
  m_PrefabInstance: {fileID: 0}
  m_PrefabAsset: {fileID: 0}
  m_GameObject: {fileID: 6934574263185039583}
  m_LocalRotation: {x: -0.01819245, y: 0.0006191872, z: 0.027030952, w: 0.99946886}
  m_LocalPosition: {x: 0.000091922055, y: 0.0022123514, z: 0.000061909035}
  m_LocalScale: {x: 0.99999994, y: 1, z: 1}
  m_Children:
  - {fileID: 8808241583194818969}
  m_Father: {fileID: 2316685747762502304}
  m_RootOrder: 2
  m_LocalEulerAnglesHint: {x: 0, y: 0, z: 0}
--- !u!1 &7094810432168894284
GameObject:
  m_ObjectHideFlags: 0
  m_CorrespondingSourceObject: {fileID: 0}
  m_PrefabInstance: {fileID: 0}
  m_PrefabAsset: {fileID: 0}
  serializedVersion: 6
  m_Component:
  - component: {fileID: 5671829863676059075}
  m_Layer: 0
  m_Name: Bone.007
  m_TagString: Untagged
  m_Icon: {fileID: 0}
  m_NavMeshLayer: 0
  m_StaticEditorFlags: 0
  m_IsActive: 1
--- !u!4 &5671829863676059075
Transform:
  m_ObjectHideFlags: 0
  m_CorrespondingSourceObject: {fileID: 0}
  m_PrefabInstance: {fileID: 0}
  m_PrefabAsset: {fileID: 0}
  m_GameObject: {fileID: 7094810432168894284}
  m_LocalRotation: {x: -0.0066032135, y: 0.0002165486, z: -0.0073047997, w: 0.9999515}
  m_LocalPosition: {x: -6.3329936e-10, y: 0.00089701504, z: 0}
  m_LocalScale: {x: 1, y: 1, z: 1}
  m_Children:
  - {fileID: 2006226117371375976}
  m_Father: {fileID: 8808241583194818969}
  m_RootOrder: 0
  m_LocalEulerAnglesHint: {x: 0, y: 0, z: 0}
--- !u!1 &7112246520700128319
GameObject:
  m_ObjectHideFlags: 0
  m_CorrespondingSourceObject: {fileID: 0}
  m_PrefabInstance: {fileID: 0}
  m_PrefabAsset: {fileID: 0}
  serializedVersion: 6
  m_Component:
  - component: {fileID: 7112246520700128312}
  - component: {fileID: 7112246520700128314}
  - component: {fileID: 7112246520700128313}
  m_Layer: 6
  m_Name: MonsterBall
  m_TagString: Untagged
  m_Icon: {fileID: 0}
  m_NavMeshLayer: 0
  m_StaticEditorFlags: 0
  m_IsActive: 1
--- !u!4 &7112246520700128312
Transform:
  m_ObjectHideFlags: 0
  m_CorrespondingSourceObject: {fileID: 0}
  m_PrefabInstance: {fileID: 0}
  m_PrefabAsset: {fileID: 0}
  m_GameObject: {fileID: 7112246520700128319}
  m_LocalRotation: {x: -0.20725593, y: -0.3518662, z: -0.36188617, w: 0.8380177}
  m_LocalPosition: {x: -0, y: 0.0024860387, z: -0.00049494917}
  m_LocalScale: {x: 0.0020000003, y: 0.0020000006, z: 0.0020000003}
  m_Children:
  - {fileID: 3130045832586817776}
  - {fileID: 3007427567859081585}
  - {fileID: 3301675383949072623}
  m_Father: {fileID: 2316685747762502304}
  m_RootOrder: 0
  m_LocalEulerAnglesHint: {x: 0, y: 0, z: 0}
--- !u!33 &7112246520700128314
MeshFilter:
  m_ObjectHideFlags: 0
  m_CorrespondingSourceObject: {fileID: 0}
  m_PrefabInstance: {fileID: 0}
  m_PrefabAsset: {fileID: 0}
  m_GameObject: {fileID: 7112246520700128319}
  m_Mesh: {fileID: 10207, guid: 0000000000000000e000000000000000, type: 0}
--- !u!23 &7112246520700128313
MeshRenderer:
  m_ObjectHideFlags: 0
  m_CorrespondingSourceObject: {fileID: 0}
  m_PrefabInstance: {fileID: 0}
  m_PrefabAsset: {fileID: 0}
  m_GameObject: {fileID: 7112246520700128319}
  m_Enabled: 0
  m_CastShadows: 0
  m_ReceiveShadows: 0
  m_DynamicOccludee: 1
  m_MotionVectors: 1
  m_LightProbeUsage: 1
  m_ReflectionProbeUsage: 1
  m_RayTracingMode: 2
  m_RayTraceProcedural: 0
  m_RenderingLayerMask: 1
  m_RendererPriority: 0
  m_Materials:
  - {fileID: 2100000, guid: 91c61a338a75ed14cac58961fb6831f0, type: 2}
  m_StaticBatchInfo:
    firstSubMesh: 0
    subMeshCount: 0
  m_StaticBatchRoot: {fileID: 0}
  m_ProbeAnchor: {fileID: 0}
  m_LightProbeVolumeOverride: {fileID: 0}
  m_ScaleInLightmap: 1
  m_ReceiveGI: 1
  m_PreserveUVs: 0
  m_IgnoreNormalsForChartDetection: 0
  m_ImportantGI: 0
  m_StitchLightmapSeams: 1
  m_SelectedEditorRenderState: 3
  m_MinimumChartSize: 4
  m_AutoUVMaxDistance: 0.5
  m_AutoUVMaxAngle: 89
  m_LightmapParameters: {fileID: 0}
  m_SortingLayerID: 0
  m_SortingLayer: 0
  m_SortingOrder: 0
  m_AdditionalVertexStreams: {fileID: 0}
--- !u!1 &7631786425885765498
GameObject:
  m_ObjectHideFlags: 0
  m_CorrespondingSourceObject: {fileID: 0}
  m_PrefabInstance: {fileID: 0}
  m_PrefabAsset: {fileID: 0}
  serializedVersion: 6
  m_Component:
  - component: {fileID: 6067493011813725445}
  m_Layer: 0
  m_Name: Bone.014
  m_TagString: Untagged
  m_Icon: {fileID: 0}
  m_NavMeshLayer: 0
  m_StaticEditorFlags: 0
  m_IsActive: 1
--- !u!4 &6067493011813725445
Transform:
  m_ObjectHideFlags: 0
  m_CorrespondingSourceObject: {fileID: 0}
  m_PrefabInstance: {fileID: 0}
  m_PrefabAsset: {fileID: 0}
  m_GameObject: {fileID: 7631786425885765498}
  m_LocalRotation: {x: -0.059462853, y: -0.003000322, z: 0.050303277, w: 0.9969578}
  m_LocalPosition: {x: -6.0535965e-11, y: 0.0002916622, z: 5.2154064e-10}
  m_LocalScale: {x: 1, y: 1.0000001, z: 1}
  m_Children:
  - {fileID: 7782290825369046282}
  m_Father: {fileID: 2410812346701053657}
  m_RootOrder: 0
  m_LocalEulerAnglesHint: {x: 0, y: 0, z: 0}
--- !u!1 &8117254635351851086
GameObject:
  m_ObjectHideFlags: 0
  m_CorrespondingSourceObject: {fileID: 0}
  m_PrefabInstance: {fileID: 0}
  m_PrefabAsset: {fileID: 0}
  serializedVersion: 6
  m_Component:
  - component: {fileID: 2129880481095840120}
  m_Layer: 0
  m_Name: Bone.003
  m_TagString: Untagged
  m_Icon: {fileID: 0}
  m_NavMeshLayer: 0
  m_StaticEditorFlags: 0
  m_IsActive: 1
--- !u!4 &2129880481095840120
Transform:
  m_ObjectHideFlags: 0
  m_CorrespondingSourceObject: {fileID: 0}
  m_PrefabInstance: {fileID: 0}
  m_PrefabAsset: {fileID: 0}
  m_GameObject: {fileID: 8117254635351851086}
  m_LocalRotation: {x: -0.0065994817, y: -0.0004766712, z: 0.0042378125, w: 0.9999691}
  m_LocalPosition: {x: -9.49949e-10, y: 0.00067193864, z: 0}
  m_LocalScale: {x: 1, y: 0.99999994, z: 0.99999994}
  m_Children:
  - {fileID: 3428818409588826108}
  m_Father: {fileID: 248884398746580763}
  m_RootOrder: 0
  m_LocalEulerAnglesHint: {x: 0, y: 0, z: 0}
--- !u!1 &8449563869977015065
GameObject:
  m_ObjectHideFlags: 0
  m_CorrespondingSourceObject: {fileID: 0}
  m_PrefabInstance: {fileID: 0}
  m_PrefabAsset: {fileID: 0}
  serializedVersion: 6
  m_Component:
  - component: {fileID: 3946740970665331575}
  m_Layer: 0
  m_Name: Bone.012
  m_TagString: Untagged
  m_Icon: {fileID: 0}
  m_NavMeshLayer: 0
  m_StaticEditorFlags: 0
  m_IsActive: 1
--- !u!4 &3946740970665331575
Transform:
  m_ObjectHideFlags: 0
  m_CorrespondingSourceObject: {fileID: 0}
  m_PrefabInstance: {fileID: 0}
  m_PrefabAsset: {fileID: 0}
  m_GameObject: {fileID: 8449563869977015065}
  m_LocalRotation: {x: -0.04828941, y: -0.00094365014, z: 0.0074494025, w: 0.99880517}
  m_LocalPosition: {x: 3.7252902e-11, y: 0.00051375746, z: -7.45058e-10}
  m_LocalScale: {x: 1, y: 1, z: 1}
  m_Children:
  - {fileID: 8209176809954371738}
  m_Father: {fileID: 8280455650582242259}
  m_RootOrder: 0
  m_LocalEulerAnglesHint: {x: 0, y: 0, z: 0}
--- !u!1 &8678383969265257063
GameObject:
  m_ObjectHideFlags: 0
  m_CorrespondingSourceObject: {fileID: 0}
  m_PrefabInstance: {fileID: 0}
  m_PrefabAsset: {fileID: 0}
  serializedVersion: 6
  m_Component:
  - component: {fileID: 2006226117371375976}
  m_Layer: 0
  m_Name: Bone.008
  m_TagString: Untagged
  m_Icon: {fileID: 0}
  m_NavMeshLayer: 0
  m_StaticEditorFlags: 0
  m_IsActive: 1
--- !u!4 &2006226117371375976
Transform:
  m_ObjectHideFlags: 0
  m_CorrespondingSourceObject: {fileID: 0}
  m_PrefabInstance: {fileID: 0}
  m_PrefabAsset: {fileID: 0}
  m_GameObject: {fileID: 8678383969265257063}
  m_LocalRotation: {x: -0.0011369464, y: -0.0005462192, z: 0.013046483, w: 0.9999141}
  m_LocalPosition: {x: -4.4703483e-10, y: 0.0006927812, z: 2.9802322e-10}
  m_LocalScale: {x: 0.9999999, y: 1, z: 0.99999994}
  m_Children:
  - {fileID: 6493356049766342895}
  m_Father: {fileID: 5671829863676059075}
  m_RootOrder: 0
  m_LocalEulerAnglesHint: {x: 0, y: 0, z: 0}
--- !u!1 &9009394045301250504
GameObject:
  m_ObjectHideFlags: 0
  m_CorrespondingSourceObject: {fileID: 0}
  m_PrefabInstance: {fileID: 0}
  m_PrefabAsset: {fileID: 0}
  serializedVersion: 6
  m_Component:
  - component: {fileID: 4414575661646574337}
  m_Layer: 0
  m_Name: Bone.004_end
  m_TagString: Untagged
  m_Icon: {fileID: 0}
  m_NavMeshLayer: 0
  m_StaticEditorFlags: 0
  m_IsActive: 1
--- !u!4 &4414575661646574337
Transform:
  m_ObjectHideFlags: 0
  m_CorrespondingSourceObject: {fileID: 0}
  m_PrefabInstance: {fileID: 0}
  m_PrefabAsset: {fileID: 0}
  m_GameObject: {fileID: 9009394045301250504}
  m_LocalRotation: {x: 0, y: -0, z: -0, w: 1}
  m_LocalPosition: {x: -0, y: 0.00032084063, z: 0}
  m_LocalScale: {x: 1, y: 1, z: 1}
  m_Children: []
  m_Father: {fileID: 3428818409588826108}
  m_RootOrder: 0
  m_LocalEulerAnglesHint: {x: 0, y: 0, z: 0}
--- !u!1001 &7112246520376276092
PrefabInstance:
  m_ObjectHideFlags: 0
  serializedVersion: 2
  m_Modification:
    m_TransformParent: {fileID: 7112246520700128312}
    m_Modifications:
    - target: {fileID: 4630986140852965303, guid: 207b2af161165584e8507062133c7d06, type: 3}
      propertyPath: m_Name
      value: BoxVip
      objectReference: {fileID: 0}
    - target: {fileID: 4630986140852965303, guid: 207b2af161165584e8507062133c7d06, type: 3}
      propertyPath: m_IsActive
      value: 0
      objectReference: {fileID: 0}
    - target: {fileID: 5408614208620991757, guid: 207b2af161165584e8507062133c7d06, type: 3}
      propertyPath: m_RootOrder
      value: 1
      objectReference: {fileID: 0}
    - target: {fileID: 5408614208620991757, guid: 207b2af161165584e8507062133c7d06, type: 3}
      propertyPath: m_LocalPosition.x
      value: -0.4
      objectReference: {fileID: 0}
    - target: {fileID: 5408614208620991757, guid: 207b2af161165584e8507062133c7d06, type: 3}
      propertyPath: m_LocalPosition.y
      value: -0.51
      objectReference: {fileID: 0}
    - target: {fileID: 5408614208620991757, guid: 207b2af161165584e8507062133c7d06, type: 3}
      propertyPath: m_LocalPosition.z
      value: -0.38
      objectReference: {fileID: 0}
    - target: {fileID: 5408614208620991757, guid: 207b2af161165584e8507062133c7d06, type: 3}
      propertyPath: m_LocalRotation.w
      value: 0.9092499
      objectReference: {fileID: 0}
    - target: {fileID: 5408614208620991757, guid: 207b2af161165584e8507062133c7d06, type: 3}
      propertyPath: m_LocalRotation.x
      value: -0.19066203
      objectReference: {fileID: 0}
    - target: {fileID: 5408614208620991757, guid: 207b2af161165584e8507062133c7d06, type: 3}
      propertyPath: m_LocalRotation.y
      value: -0.30930007
      objectReference: {fileID: 0}
    - target: {fileID: 5408614208620991757, guid: 207b2af161165584e8507062133c7d06, type: 3}
      propertyPath: m_LocalRotation.z
      value: -0.20309143
      objectReference: {fileID: 0}
    - target: {fileID: 5408614208620991757, guid: 207b2af161165584e8507062133c7d06, type: 3}
      propertyPath: m_LocalEulerAnglesHint.x
      value: -28.187
      objectReference: {fileID: 0}
    - target: {fileID: 5408614208620991757, guid: 207b2af161165584e8507062133c7d06, type: 3}
      propertyPath: m_LocalEulerAnglesHint.y
      value: -33.386
      objectReference: {fileID: 0}
    - target: {fileID: 5408614208620991757, guid: 207b2af161165584e8507062133c7d06, type: 3}
      propertyPath: m_LocalEulerAnglesHint.z
      value: -16.571
      objectReference: {fileID: 0}
    m_RemovedComponents: []
  m_SourcePrefab: {fileID: 100100000, guid: 207b2af161165584e8507062133c7d06, type: 3}
--- !u!4 &3007427567859081585 stripped
Transform:
  m_CorrespondingSourceObject: {fileID: 5408614208620991757, guid: 207b2af161165584e8507062133c7d06, type: 3}
  m_PrefabInstance: {fileID: 7112246520376276092}
  m_PrefabAsset: {fileID: 0}
--- !u!1 &2519579122284723147 stripped
GameObject:
  m_CorrespondingSourceObject: {fileID: 4630986140852965303, guid: 207b2af161165584e8507062133c7d06, type: 3}
  m_PrefabInstance: {fileID: 7112246520376276092}
  m_PrefabAsset: {fileID: 0}
--- !u!1001 &7112246520521140905
PrefabInstance:
  m_ObjectHideFlags: 0
  serializedVersion: 2
  m_Modification:
    m_TransformParent: {fileID: 7112246520700128312}
    m_Modifications:
    - target: {fileID: 4911736623197350140, guid: 71c4b9c7e94324743b4658f4ff7573c4, type: 3}
      propertyPath: m_Name
      value: BoxNormal
      objectReference: {fileID: 0}
    - target: {fileID: 4911736623197350140, guid: 71c4b9c7e94324743b4658f4ff7573c4, type: 3}
      propertyPath: m_IsActive
      value: 0
      objectReference: {fileID: 0}
    - target: {fileID: 5720185895882338886, guid: 71c4b9c7e94324743b4658f4ff7573c4, type: 3}
      propertyPath: m_RootOrder
      value: 2
      objectReference: {fileID: 0}
    - target: {fileID: 5720185895882338886, guid: 71c4b9c7e94324743b4658f4ff7573c4, type: 3}
      propertyPath: m_LocalPosition.x
      value: -0.4
      objectReference: {fileID: 0}
    - target: {fileID: 5720185895882338886, guid: 71c4b9c7e94324743b4658f4ff7573c4, type: 3}
      propertyPath: m_LocalPosition.y
      value: -0.51
      objectReference: {fileID: 0}
    - target: {fileID: 5720185895882338886, guid: 71c4b9c7e94324743b4658f4ff7573c4, type: 3}
      propertyPath: m_LocalPosition.z
      value: -0.384
      objectReference: {fileID: 0}
    - target: {fileID: 5720185895882338886, guid: 71c4b9c7e94324743b4658f4ff7573c4, type: 3}
      propertyPath: m_LocalRotation.w
      value: 0.9092499
      objectReference: {fileID: 0}
    - target: {fileID: 5720185895882338886, guid: 71c4b9c7e94324743b4658f4ff7573c4, type: 3}
      propertyPath: m_LocalRotation.x
      value: -0.19066203
      objectReference: {fileID: 0}
    - target: {fileID: 5720185895882338886, guid: 71c4b9c7e94324743b4658f4ff7573c4, type: 3}
      propertyPath: m_LocalRotation.y
      value: -0.30930007
      objectReference: {fileID: 0}
    - target: {fileID: 5720185895882338886, guid: 71c4b9c7e94324743b4658f4ff7573c4, type: 3}
      propertyPath: m_LocalRotation.z
      value: -0.20309143
      objectReference: {fileID: 0}
    - target: {fileID: 5720185895882338886, guid: 71c4b9c7e94324743b4658f4ff7573c4, type: 3}
      propertyPath: m_LocalEulerAnglesHint.x
      value: -28.187
      objectReference: {fileID: 0}
    - target: {fileID: 5720185895882338886, guid: 71c4b9c7e94324743b4658f4ff7573c4, type: 3}
      propertyPath: m_LocalEulerAnglesHint.y
      value: -33.386
      objectReference: {fileID: 0}
    - target: {fileID: 5720185895882338886, guid: 71c4b9c7e94324743b4658f4ff7573c4, type: 3}
      propertyPath: m_LocalEulerAnglesHint.z
      value: -16.571
      objectReference: {fileID: 0}
    - target: {fileID: 7325279465440079405, guid: 71c4b9c7e94324743b4658f4ff7573c4, type: 3}
      propertyPath: m_Mesh
      value: 
      objectReference: {fileID: 4493585093827132993, guid: a0aacbc2b64c22f4893b1c4a690d2047, type: 3}
    - target: {fileID: 8704883407501082083, guid: 71c4b9c7e94324743b4658f4ff7573c4, type: 3}
      propertyPath: m_Mesh
      value: 
      objectReference: {fileID: 7506022949801504896, guid: a0aacbc2b64c22f4893b1c4a690d2047, type: 3}
    m_RemovedComponents: []
  m_SourcePrefab: {fileID: 100100000, guid: 71c4b9c7e94324743b4658f4ff7573c4, type: 3}
--- !u!1 &2781598290504827477 stripped
GameObject:
  m_CorrespondingSourceObject: {fileID: 4911736623197350140, guid: 71c4b9c7e94324743b4658f4ff7573c4, type: 3}
  m_PrefabInstance: {fileID: 7112246520521140905}
  m_PrefabAsset: {fileID: 0}
--- !u!4 &3301675383949072623 stripped
Transform:
  m_CorrespondingSourceObject: {fileID: 5720185895882338886, guid: 71c4b9c7e94324743b4658f4ff7573c4, type: 3}
  m_PrefabInstance: {fileID: 7112246520521140905}
  m_PrefabAsset: {fileID: 0}
--- !u!1001 &7112246521797425767
PrefabInstance:
  m_ObjectHideFlags: 0
  serializedVersion: 2
  m_Modification:
    m_TransformParent: {fileID: 7112246520700128312}
    m_Modifications:
    - target: {fileID: 4794150188778852397, guid: 172259a1a1fe51f4a8cff74df40627b7, type: 3}
      propertyPath: m_Name
      value: EmptyBox
      objectReference: {fileID: 0}
    - target: {fileID: 4794150188778852397, guid: 172259a1a1fe51f4a8cff74df40627b7, type: 3}
      propertyPath: m_IsActive
      value: 0
      objectReference: {fileID: 0}
    - target: {fileID: 5315354350296058519, guid: 172259a1a1fe51f4a8cff74df40627b7, type: 3}
      propertyPath: m_RootOrder
      value: 0
      objectReference: {fileID: 0}
    - target: {fileID: 5315354350296058519, guid: 172259a1a1fe51f4a8cff74df40627b7, type: 3}
      propertyPath: m_LocalPosition.x
      value: -0.32546884
      objectReference: {fileID: 0}
    - target: {fileID: 5315354350296058519, guid: 172259a1a1fe51f4a8cff74df40627b7, type: 3}
      propertyPath: m_LocalPosition.y
      value: -0.28039876
      objectReference: {fileID: 0}
    - target: {fileID: 5315354350296058519, guid: 172259a1a1fe51f4a8cff74df40627b7, type: 3}
      propertyPath: m_LocalPosition.z
      value: -0.38560528
      objectReference: {fileID: 0}
    - target: {fileID: 5315354350296058519, guid: 172259a1a1fe51f4a8cff74df40627b7, type: 3}
      propertyPath: m_LocalRotation.w
      value: 0.9025877
      objectReference: {fileID: 0}
    - target: {fileID: 5315354350296058519, guid: 172259a1a1fe51f4a8cff74df40627b7, type: 3}
      propertyPath: m_LocalRotation.x
      value: -0.22743852
      objectReference: {fileID: 0}
    - target: {fileID: 5315354350296058519, guid: 172259a1a1fe51f4a8cff74df40627b7, type: 3}
      propertyPath: m_LocalRotation.y
      value: -0.285566
      objectReference: {fileID: 0}
    - target: {fileID: 5315354350296058519, guid: 172259a1a1fe51f4a8cff74df40627b7, type: 3}
      propertyPath: m_LocalRotation.z
      value: -0.22816493
      objectReference: {fileID: 0}
    - target: {fileID: 5315354350296058519, guid: 172259a1a1fe51f4a8cff74df40627b7, type: 3}
      propertyPath: m_LocalEulerAnglesHint.x
      value: -32.744
      objectReference: {fileID: 0}
    - target: {fileID: 5315354350296058519, guid: 172259a1a1fe51f4a8cff74df40627b7, type: 3}
      propertyPath: m_LocalEulerAnglesHint.y
      value: -29.307
      objectReference: {fileID: 0}
    - target: {fileID: 5315354350296058519, guid: 172259a1a1fe51f4a8cff74df40627b7, type: 3}
      propertyPath: m_LocalEulerAnglesHint.z
      value: -19.588
      objectReference: {fileID: 0}
    m_RemovedComponents: []
  m_SourcePrefab: {fileID: 100100000, guid: 172259a1a1fe51f4a8cff74df40627b7, type: 3}
--- !u!4 &3130045832586817776 stripped
Transform:
  m_CorrespondingSourceObject: {fileID: 5315354350296058519, guid: 172259a1a1fe51f4a8cff74df40627b7, type: 3}
  m_PrefabInstance: {fileID: 7112246521797425767}
  m_PrefabAsset: {fileID: 0}
--- !u!1 &2322723490265246282 stripped
GameObject:
  m_CorrespondingSourceObject: {fileID: 4794150188778852397, guid: 172259a1a1fe51f4a8cff74df40627b7, type: 3}
  m_PrefabInstance: {fileID: 7112246521797425767}
  m_PrefabAsset: {fileID: 0}
